2018/10/15 14:25:34 8
2018/10/15 14:25:34 9
2018/10/15 14:25:34 10
2018/10/15 14:25:34 15
2018/10/15 14:25:35 7
2018/10/15 14:25:35 15
2018/10/15 14:25:35 22
2018/10/15 14:25:35 22
2018/10/15 14:25:35 24
2018/10/15 14:25:35 26
2018/10/15 14:25:35 26
2018/10/15 14:25:35 26
2018/10/15 14:25:35 26
2018/10/15 14:25:35 27
2018/10/15 14:25:35 27
2018/10/15 14:25:35 28
2018/10/15 14:25:35 28
2018/10/15 14:25:35 28
2018/10/15 14:25:35 6
2018/10/15 14:25:35 28
2018/10/15 14:25:35 29
2018/10/15 14:25:35 29
2018/10/15 14:25:35 29
2018/10/15 14:25:35 25
2018/10/15 14:25:35 6
2018/10/15 14:25:35 30
2018/10/15 14:25:35 28
2018/10/15 14:25:35 25
2018/10/15 14:25:35 33
2018/10/15 14:25:35 34
2018/10/15 14:25:35 25
2018/10/15 14:25:35 35
2018/10/15 14:25:35 35
2018/10/15 14:25:35 35
2018/10/15 14:25:35 9
2018/10/15 14:25:35 36
2018/10/15 14:25:35 36
2018/10/15 14:25:35 36
2018/10/15 14:25:35 37
2018/10/15 14:25:35 37
2018/10/15 14:25:35 25
2018/10/15 14:25:35 38
2018/10/15 14:25:35 38
2018/10/15 14:25:35 38
2018/10/15 14:25:35 38
2018/10/15 14:25:35 38
2018/10/15 14:25:35 38
2018/10/15 14:25:35 38
2018/10/15 14:25:35 39
2018/10/15 14:25:35 25
2018/10/15 14:25:35 40
2018/10/15 14:25:35 5
2018/10/15 14:25:35 41
2018/10/15 14:25:35 42
2018/10/15 14:25:35 42
2018/10/15 14:25:35 42
2018/10/15 14:25:35 27
2018/10/15 14:25:35 5
2018/10/15 14:25:35 26
2018/10/15 14:25:35 45
2018/10/15 14:25:35 26
2018/10/15 14:25:35 5
2018/10/15 14:25:35 47
2018/10/15 14:25:35 7
2018/10/15 14:25:35 49
2018/10/15 14:25:35 5
2018/10/15 14:25:35 50
2018/10/15 14:25:35 6
2018/10/15 14:25:35 6
2018/10/15 14:25:35 26
2018/10/15 14:25:35 55
2018/10/15 14:25:35 24
2018/10/15 14:25:35 26
2018/10/15 14:25:35 7
2018/10/15 14:25:35 23
2018/10/15 14:25:35 5
2018/10/15 14:25:35 6
2018/10/15 14:25:35 6
2018/10/15 14:25:35 6
2018/10/15 14:25:35 5
2018/10/15 14:25:35 5
2018/10/15 14:25:35 5
2018/10/15 14:25:35 5
2018/10/15 14:25:35 5
2018/10/15 14:25:35 6
2018/10/15 14:25:35 6
2018/10/15 14:25:35 5
2018/10/15 14:25:35 5
2018/10/15 14:25:35 5
2018/10/15 14:25:35 5
2018/10/15 14:25:35 5
2018/10/15 14:25:35 5
2018/10/15 14:25:35 5
2018/10/15 14:25:35 6
2018/10/15 14:25:35 5
2018/10/15 14:25:35 5
2018/10/15 14:25:35 5
2018/10/15 14:25:35 5
2018/10/15 14:25:35 7
2018/10/15 14:25:35 8
2018/10/15 14:25:35 7
2018/10/15 14:25:35 7
2018/10/15 14:25:35 6
2018/10/15 14:25:35 5
2018/10/15 14:25:36 5
2018/10/15 14:25:36 5
2018/10/15 14:25:36 5
2018/10/15 14:25:36 5
2018/10/15 14:25:36 5
2018/10/15 14:25:36 5
2018/10/15 14:25:36 5
2018/10/15 14:25:36 5
2018/10/15 14:25:36 5
2018/10/15 14:25:36 5
2018/10/15 14:25:36 5
2018/10/15 14:25:36 5
2018/10/15 14:25:36 5
2018/10/15 14:25:36 5
2018/10/15 14:25:36 5
2018/10/15 14:25:36 5
2018/10/15 14:25:36 5
2018/10/15 14:25:36 4
2018/10/15 14:25:36 5
2018/10/15 14:25:36 5
2018/10/15 14:25:36 5
2018/10/15 14:25:36 5
2018/10/15 14:25:36 5
2018/10/15 14:25:36 5
2018/10/15 14:25:36 5
2018/10/15 14:25:36 5
2018/10/15 14:25:36 5
2018/10/15 14:25:36 5
2018/10/15 14:25:36 5
2018/10/15 14:25:36 5
2018/10/15 14:25:36 5
2018/10/15 14:25:36 5
2018/10/15 14:25:36 5
2018/10/15 14:25:36 5
2018/10/15 14:25:36 5
2018/10/15 14:25:36 5
2018/10/15 14:25:36 5
2018/10/15 14:25:36 5
2018/10/15 14:25:36 4
2018/10/15 14:25:36 4
2018/10/15 14:25:36 5
2018/10/15 14:25:36 5
2018/10/15 14:25:36 5
2018/10/15 14:25:36 5
2018/10/15 14:25:36 5
2018/10/15 14:25:36 5
2018/10/15 14:25:36 5
2018/10/15 14:25:36 5
2018/10/15 14:25:36 5
2018/10/15 14:25:36 5
2018/10/15 14:25:37 5
2018/10/15 14:25:37 5
2018/10/15 14:25:37 5
2018/10/15 14:25:37 5
2018/10/15 14:25:37 5
2018/10/15 14:25:37 5
2018/10/15 14:25:37 5
2018/10/15 14:25:37 5
2018/10/15 14:25:37 4
2018/10/15 14:25:37 5
2018/10/15 14:25:37 7
2018/10/15 14:25:37 5
2018/10/15 14:25:37 5
2018/10/15 14:25:37 5
2018/10/15 14:25:37 5
2018/10/15 14:25:37 4
2018/10/15 14:25:37 5
2018/10/15 14:25:37 5
2018/10/15 14:25:37 5
2018/10/15 14:25:37 5
2018/10/15 14:25:37 5
2018/10/15 14:25:37 5
2018/10/15 14:25:37 5
2018/10/15 14:25:37 5
2018/10/15 14:25:37 4
2018/10/15 14:25:37 5
2018/10/15 14:25:37 5
2018/10/15 14:25:37 5
2018/10/15 14:25:37 5
2018/10/15 14:25:37 5
2018/10/15 14:25:37 5
2018/10/15 14:25:37 5
2018/10/15 14:25:37 4
2018/10/15 14:25:37 5
2018/10/15 14:25:37 5
2018/10/15 14:25:37 5
2018/10/15 14:25:37 5
2018/10/15 14:25:37 5
2018/10/15 14:25:37 5
2018/10/15 14:25:37 5
2018/10/15 14:25:37 4
2018/10/15 14:25:37 5
2018/10/15 14:25:37 5
2018/10/15 14:25:37 5
2018/10/15 14:25:37 5
2018/10/15 14:25:37 5
2018/10/15 14:25:37 5
2018/10/15 14:25:37 5
2018/10/15 14:25:37 5
2018/10/15 14:25:38 6
2018/10/15 14:25:38 7
2018/10/15 14:25:38 5
2018/10/15 14:25:38 5
2018/10/15 14:25:38 5
2018/10/15 14:25:38 5
2018/10/15 14:25:38 6
2018/10/15 14:25:38 5
2018/10/15 14:25:38 5
2018/10/15 14:25:38 5
2018/10/15 14:25:38 8
2018/10/15 14:25:38 5
2018/10/15 14:25:38 5
2018/10/15 14:25:38 5
2018/10/15 14:25:38 5
2018/10/15 14:25:38 5
2018/10/15 14:25:38 5
2018/10/15 14:25:38 5
2018/10/15 14:25:38 5
2018/10/15 14:25:38 5
2018/10/15 14:25:38 5
2018/10/15 14:25:38 5
2018/10/15 14:25:38 5
2018/10/15 14:25:38 5
2018/10/15 14:25:38 4
2018/10/15 14:25:38 5
2018/10/15 14:25:38 5
2018/10/15 14:25:38 5
2018/10/15 14:25:38 5
2018/10/15 14:25:38 5
2018/10/15 14:25:38 5
2018/10/15 14:25:38 5
2018/10/15 14:25:38 5
2018/10/15 14:25:38 5
2018/10/15 14:25:38 5
2018/10/15 14:25:38 5
2018/10/15 14:25:38 5
2018/10/15 14:25:38 5
2018/10/15 14:25:38 4
2018/10/15 14:25:38 5
2018/10/15 14:25:38 5
2018/10/15 14:25:38 5
2018/10/15 14:25:38 5
2018/10/15 14:25:38 5
2018/10/15 14:25:38 5
2018/10/15 14:25:38 5
2018/10/15 14:25:38 5
2018/10/15 14:25:38 4
2018/10/15 14:25:38 5
2018/10/15 14:25:38 5
2018/10/15 14:25:38 5
2018/10/15 14:25:39 5
2018/10/15 14:25:39 5
2018/10/15 14:25:39 5
2018/10/15 14:25:39 5
2018/10/15 14:25:39 5
2018/10/15 14:25:39 5
2018/10/15 14:25:39 5
2018/10/15 14:25:39 5
2018/10/15 14:25:39 5
2018/10/15 14:25:39 5
2018/10/15 14:25:39 5
2018/10/15 14:25:39 5
2018/10/15 14:25:39 5
2018/10/15 14:25:39 5
2018/10/15 14:25:39 5
2018/10/15 14:25:39 5
2018/10/15 14:25:39 4
2018/10/15 14:25:39 5
2018/10/15 14:25:39 5
2018/10/15 14:25:39 5
2018/10/15 14:25:39 5
2018/10/15 14:25:39 5
2018/10/15 14:25:39 5
2018/10/15 14:25:39 5
2018/10/15 14:25:39 5
2018/10/15 14:25:39 4
2018/10/15 14:25:39 5
2018/10/15 14:25:39 5
2018/10/15 14:25:39 5
2018/10/15 14:25:39 5
2018/10/15 14:25:39 5
2018/10/15 14:25:39 5
2018/10/15 14:25:39 4
2018/10/15 14:25:39 5
2018/10/15 14:25:39 5
2018/10/15 14:25:39 5
2018/10/15 14:25:39 4
2018/10/15 14:25:39 5
2018/10/15 14:25:39 5
2018/10/15 14:25:39 5
2018/10/15 14:25:39 5
2018/10/15 14:25:39 5
2018/10/15 14:25:39 5
2018/10/15 14:25:39 5
2018/10/15 14:25:39 5
2018/10/15 14:25:39 7
2018/10/15 14:25:39 5
2018/10/15 14:25:39 5
2018/10/15 14:25:39 6
2018/10/15 14:25:39 5
2018/10/15 14:25:40 5
2018/10/15 14:25:40 5
2018/10/15 14:25:40 5
2018/10/15 14:25:40 5
2018/10/15 14:25:40 5
2018/10/15 14:25:40 5
2018/10/15 14:25:40 4
2018/10/15 14:25:40 5
2018/10/15 14:25:40 4
2018/10/15 14:25:40 5
2018/10/15 14:25:40 5
2018/10/15 14:25:40 5
2018/10/15 14:25:40 5
2018/10/15 14:25:40 5
2018/10/15 14:25:40 5
2018/10/15 14:25:40 5
2018/10/15 14:25:40 5
2018/10/15 14:25:40 5
2018/10/15 14:25:40 5
2018/10/15 14:25:40 5
2018/10/15 14:25:40 5
2018/10/15 14:25:40 5
2018/10/15 14:25:40 4
2018/10/15 14:25:40 5
2018/10/15 14:25:40 5
2018/10/15 14:25:40 5
2018/10/15 14:25:40 5
2018/10/15 14:25:40 5
2018/10/15 14:25:40 5
2018/10/15 14:25:40 5
2018/10/15 14:25:40 5
2018/10/15 14:25:40 4
2018/10/15 14:25:40 5
2018/10/15 14:25:40 4
2018/10/15 14:25:40 5
2018/10/15 14:25:40 5
2018/10/15 14:25:40 5
2018/10/15 14:25:40 5
2018/10/15 14:25:40 5
2018/10/15 14:25:40 5
2018/10/15 14:25:40 5
2018/10/15 14:25:40 5
2018/10/15 14:25:40 5
2018/10/15 14:25:40 5
2018/10/15 14:25:40 5
2018/10/15 14:25:40 5
2018/10/15 14:25:40 6
2018/10/15 14:25:40 5
2018/10/15 14:25:40 5
2018/10/15 14:25:40 5
2018/10/15 14:25:41 5
2018/10/15 14:25:41 5
2018/10/15 14:25:41 5
2018/10/15 14:25:41 5
2018/10/15 14:25:41 5
2018/10/15 14:25:41 5
2018/10/15 14:25:41 5
2018/10/15 14:25:41 5
2018/10/15 14:25:41 5
2018/10/15 14:25:41 5
2018/10/15 14:25:41 5
2018/10/15 14:25:41 4
2018/10/15 14:25:41 5
2018/10/15 14:25:41 5
2018/10/15 14:25:41 5
2018/10/15 14:25:41 4
2018/10/15 14:25:41 5
2018/10/15 14:25:41 5
2018/10/15 14:25:41 5
2018/10/15 14:25:41 4
2018/10/15 14:25:41 5
2018/10/15 14:25:41 5
2018/10/15 14:25:41 5
2018/10/15 14:25:41 5
2018/10/15 14:25:41 5
2018/10/15 14:25:41 5
2018/10/15 14:25:41 5
2018/10/15 14:25:41 5
2018/10/15 14:25:41 5
2018/10/15 14:25:41 5
2018/10/15 14:25:41 5
2018/10/15 14:25:41 4
2018/10/15 14:25:41 5
2018/10/15 14:25:41 4
2018/10/15 14:25:41 5
2018/10/15 14:25:41 5
2018/10/15 14:25:41 5
2018/10/15 14:25:41 5
2018/10/15 14:25:41 5
2018/10/15 14:25:41 5
2018/10/15 14:25:41 5
2018/10/15 14:25:41 5
2018/10/15 14:25:41 6
2018/10/15 14:25:41 5
2018/10/15 14:25:41 5
2018/10/15 14:25:41 5
2018/10/15 14:25:41 5
2018/10/15 14:25:41 5
2018/10/15 14:25:41 5
2018/10/15 14:25:41 5
2018/10/15 14:25:42 5
2018/10/15 14:25:42 5
2018/10/15 14:25:42 5
2018/10/15 14:25:42 5
2018/10/15 14:25:42 5
2018/10/15 14:25:42 5
2018/10/15 14:25:42 5
2018/10/15 14:25:42 4
2018/10/15 14:25:42 4
2018/10/15 14:25:42 5
2018/10/15 14:25:42 5
2018/10/15 14:25:42 5
2018/10/15 14:25:42 7
2018/10/15 14:25:42 5
2018/10/15 14:25:42 5
2018/10/15 14:25:42 7
2018/10/15 14:25:42 5
2018/10/15 14:25:42 5
2018/10/15 14:25:42 5
2018/10/15 14:25:42 5
2018/10/15 14:25:42 5
2018/10/15 14:25:42 5
2018/10/15 14:25:42 5
2018/10/15 14:25:42 5
2018/10/15 14:25:42 5
2018/10/15 14:25:42 5
2018/10/15 14:25:42 5
2018/10/15 14:25:42 5
2018/10/15 14:25:42 5
2018/10/15 14:25:42 5
2018/10/15 14:25:42 4
2018/10/15 14:25:42 4
2018/10/15 14:25:42 5
2018/10/15 14:25:42 5
2018/10/15 14:25:42 5
2018/10/15 14:25:42 5
2018/10/15 14:25:42 5
2018/10/15 14:25:42 5
2018/10/15 14:25:42 4
2018/10/15 14:25:42 5
2018/10/15 14:25:42 5
2018/10/15 14:25:42 5
2018/10/15 14:25:42 5
2018/10/15 14:25:42 4
2018/10/15 14:25:42 5
2018/10/15 14:25:42 5
2018/10/15 14:25:42 5
2018/10/15 14:25:42 5
2018/10/15 14:25:42 5
2018/10/15 14:25:42 5
2018/10/15 14:25:43 5
2018/10/15 14:25:43 5
2018/10/15 14:25:43 5
2018/10/15 14:25:43 4
2018/10/15 14:25:43 5
2018/10/15 14:25:43 5
2018/10/15 14:25:43 5
2018/10/15 14:25:43 5
2018/10/15 14:25:43 5
2018/10/15 14:25:43 5
2018/10/15 14:25:43 5
2018/10/15 14:25:43 5
2018/10/15 14:25:43 5
2018/10/15 14:25:43 6
2018/10/15 14:25:43 5
2018/10/15 14:25:43 8
2018/10/15 14:25:43 6
2018/10/15 14:25:43 5
2018/10/15 14:25:43 5
2018/10/15 14:25:43 5
2018/10/15 14:25:43 5
2018/10/15 14:25:43 5
2018/10/15 14:25:43 5
2018/10/15 14:25:43 5
2018/10/15 14:25:43 5
2018/10/15 14:25:43 5
2018/10/15 14:25:43 5
2018/10/15 14:25:43 5
2018/10/15 14:25:43 6
2018/10/15 14:25:43 5
2018/10/15 14:25:43 5
2018/10/15 14:25:43 4
2018/10/15 14:25:43 5
2018/10/15 14:25:43 4
2018/10/15 14:25:43 5
2018/10/15 14:25:43 5
2018/10/15 14:25:43 4
2018/10/15 14:25:43 5
2018/10/15 14:25:43 5
2018/10/15 14:25:43 5
2018/10/15 14:25:43 5
2018/10/15 14:25:43 5
2018/10/15 14:25:43 5
2018/10/15 14:25:43 5
2018/10/15 14:25:43 8
2018/10/15 14:25:43 5
2018/10/15 14:25:43 5
2018/10/15 14:25:43 5
2018/10/15 14:25:43 6
2018/10/15 14:25:43 5
2018/10/15 14:25:44 5
2018/10/15 14:25:44 5
2018/10/15 14:25:44 5
2018/10/15 14:25:44 5
2018/10/15 14:25:44 5
2018/10/15 14:25:44 5
2018/10/15 14:25:44 5
2018/10/15 14:25:44 5
2018/10/15 14:25:44 4
2018/10/15 14:25:44 5
2018/10/15 14:25:44 5
2018/10/15 14:25:44 5
2018/10/15 14:25:44 5
2018/10/15 14:25:44 5
2018/10/15 14:25:44 5
2018/10/15 14:25:44 5
2018/10/15 14:25:44 5
2018/10/15 14:25:44 5
2018/10/15 14:25:44 5
2018/10/15 14:25:44 5
2018/10/15 14:25:44 5
2018/10/15 14:25:44 5
2018/10/15 14:25:44 5
2018/10/15 14:25:44 5
2018/10/15 14:25:44 5
2018/10/15 14:25:44 5
2018/10/15 14:25:44 5
2018/10/15 14:25:44 5
2018/10/15 14:25:44 5
2018/10/15 14:25:44 5
2018/10/15 14:25:44 5
2018/10/15 14:25:44 5
2018/10/15 14:25:44 5
2018/10/15 14:25:44 5
2018/10/15 14:25:44 4
2018/10/15 14:25:44 5
2018/10/15 14:25:44 5
2018/10/15 14:25:44 5
2018/10/15 14:25:44 4
2018/10/15 14:25:44 5
2018/10/15 14:25:44 5
2018/10/15 14:25:44 5
2018/10/15 14:25:44 5
2018/10/15 14:25:44 5
2018/10/15 14:25:44 5
2018/10/15 14:25:44 4
2018/10/15 14:25:44 5
2018/10/15 14:25:44 5
2018/10/15 14:25:44 5
2018/10/15 14:25:44 5
2018/10/15 14:25:45 5
2018/10/15 14:25:45 5
2018/10/15 14:25:45 5
2018/10/15 14:25:45 5
2018/10/15 14:25:45 5
2018/10/15 14:25:45 5
2018/10/15 14:25:45 5
2018/10/15 14:25:45 5
2018/10/15 14:25:45 5
2018/10/15 14:25:45 5
2018/10/15 14:25:45 5
2018/10/15 14:25:45 5
2018/10/15 14:25:45 5
2018/10/15 14:25:45 5
2018/10/15 14:25:45 5
2018/10/15 14:25:45 5
2018/10/15 14:25:45 4
2018/10/15 14:25:45 5
2018/10/15 14:25:45 4
2018/10/15 14:25:45 5
2018/10/15 14:25:45 5
2018/10/15 14:25:45 4
2018/10/15 14:25:45 5
2018/10/15 14:25:45 5
2018/10/15 14:25:45 5
2018/10/15 14:25:45 5
2018/10/15 14:25:45 5
2018/10/15 14:25:45 5
2018/10/15 14:25:45 5
2018/10/15 14:25:45 5
2018/10/15 14:25:45 4
2018/10/15 14:25:45 5
2018/10/15 14:25:45 4
2018/10/15 14:25:45 5
2018/10/15 14:25:45 4
2018/10/15 14:25:45 5
2018/10/15 14:25:45 5
2018/10/15 14:25:45 5
2018/10/15 14:25:45 5
2018/10/15 14:25:45 5
2018/10/15 14:25:45 5
2018/10/15 14:25:45 4
2018/10/15 14:25:45 5
2018/10/15 14:25:45 5
2018/10/15 14:25:45 4
2018/10/15 14:25:45 5
2018/10/15 14:25:45 5
2018/10/15 14:25:45 5
2018/10/15 14:25:45 5
2018/10/15 14:25:45 4
2018/10/15 14:25:46 5
2018/10/15 14:25:46 6
2018/10/15 14:25:46 5
2018/10/15 14:25:46 4
2018/10/15 14:25:46 5
2018/10/15 14:25:46 4
2018/10/15 14:25:46 5
2018/10/15 14:25:46 5
2018/10/15 14:25:46 5
2018/10/15 14:25:46 4
2018/10/15 14:25:46 5
2018/10/15 14:25:46 5
2018/10/15 14:25:46 5
2018/10/15 14:25:46 5
2018/10/15 14:25:46 5
2018/10/15 14:25:46 5
2018/10/15 14:25:46 5
2018/10/15 14:25:46 5
2018/10/15 14:25:46 5
2018/10/15 14:25:46 5
2018/10/15 14:25:46 5
2018/10/15 14:25:46 5
2018/10/15 14:25:46 5
2018/10/15 14:25:46 5
2018/10/15 14:25:46 5
2018/10/15 14:25:46 5
2018/10/15 14:25:46 5
2018/10/15 14:25:46 5
2018/10/15 14:25:46 5
2018/10/15 14:25:46 5
2018/10/15 14:25:46 5
2018/10/15 14:25:46 5
2018/10/15 14:25:46 4
2018/10/15 14:25:46 4
2018/10/15 14:25:46 4
2018/10/15 14:25:46 5
2018/10/15 14:25:46 5
2018/10/15 14:25:46 5
2018/10/15 14:25:46 5
2018/10/15 14:25:46 5
2018/10/15 14:25:46 5
2018/10/15 14:25:46 5
2018/10/15 14:25:46 5
2018/10/15 14:25:46 5
2018/10/15 14:25:46 5
2018/10/15 14:25:46 5
2018/10/15 14:25:46 5
2018/10/15 14:25:46 7
2018/10/15 14:25:46 5
2018/10/15 14:25:46 5
2018/10/15 14:25:47 5
2018/10/15 14:25:47 5
2018/10/15 14:25:47 4
2018/10/15 14:25:47 5
2018/10/15 14:25:47 5
2018/10/15 14:25:47 5
2018/10/15 14:25:47 5
2018/10/15 14:25:47 5
2018/10/15 14:25:47 4
2018/10/15 14:25:47 5
2018/10/15 14:25:47 5
2018/10/15 14:25:47 5
2018/10/15 14:25:47 5
2018/10/15 14:25:47 5
2018/10/15 14:25:47 5
2018/10/15 14:25:47 5
2018/10/15 14:25:47 5
2018/10/15 14:25:47 5
2018/10/15 14:25:47 5
2018/10/15 14:25:47 5
2018/10/15 14:25:47 5
2018/10/15 14:25:47 5
2018/10/15 14:25:47 5
2018/10/15 14:25:47 5
2018/10/15 14:25:47 5
2018/10/15 14:25:47 5
2018/10/15 14:25:47 5
2018/10/15 14:25:47 4
2018/10/15 14:25:47 5
2018/10/15 14:25:47 4
2018/10/15 14:25:47 5
2018/10/15 14:25:47 5
2018/10/15 14:25:47 4
2018/10/15 14:25:47 4
2018/10/15 14:25:47 5
2018/10/15 14:25:47 5
2018/10/15 14:25:47 5
2018/10/15 14:25:47 5
2018/10/15 14:25:47 5
2018/10/15 14:25:47 5
2018/10/15 14:25:47 5
2018/10/15 14:25:47 5
2018/10/15 14:25:47 5
2018/10/15 14:25:47 5
2018/10/15 14:25:47 5
2018/10/15 14:25:47 4
2018/10/15 14:25:47 5
2018/10/15 14:25:47 5
2018/10/15 14:25:47 5
2018/10/15 14:25:47 5
2018/10/15 14:25:48 5
2018/10/15 14:25:48 5
2018/10/15 14:25:48 4
2018/10/15 14:25:48 9
2018/10/15 14:25:48 5
2018/10/15 14:25:48 5
2018/10/15 14:25:48 5
2018/10/15 14:25:48 5
2018/10/15 14:25:48 5
2018/10/15 14:25:48 5
2018/10/15 14:25:48 5
2018/10/15 14:25:48 5
2018/10/15 14:25:48 5
2018/10/15 14:25:48 5
2018/10/15 14:25:48 7
2018/10/15 14:25:48 5
2018/10/15 14:25:48 5
2018/10/15 14:25:48 5
2018/10/15 14:25:48 5
2018/10/15 14:25:48 5
2018/10/15 14:25:48 5
2018/10/15 14:25:48 4
2018/10/15 14:25:48 5
2018/10/15 14:25:48 5
2018/10/15 14:25:48 5
2018/10/15 14:25:48 4
2018/10/15 14:25:48 5
2018/10/15 14:25:48 5
2018/10/15 14:25:48 5
2018/10/15 14:25:48 5
2018/10/15 14:25:48 5
2018/10/15 14:25:48 5
2018/10/15 14:25:48 5
2018/10/15 14:25:48 5
2018/10/15 14:25:48 5
2018/10/15 14:25:48 5
2018/10/15 14:25:48 5
2018/10/15 14:25:48 5
2018/10/15 14:25:48 5
2018/10/15 14:25:48 5
2018/10/15 14:25:48 5
2018/10/15 14:25:48 5
2018/10/15 14:25:48 5
2018/10/15 14:25:48 5
2018/10/15 14:25:48 4
2018/10/15 14:25:48 5
2018/10/15 14:25:48 5
2018/10/15 14:25:48 5
2018/10/15 14:25:48 5
2018/10/15 14:25:48 5
2018/10/15 14:25:49 5
2018/10/15 14:25:49 7
2018/10/15 14:25:49 4
2018/10/15 14:25:49 5
2018/10/15 14:25:49 5
2018/10/15 14:25:49 5
2018/10/15 14:25:49 5
2018/10/15 14:25:49 5
2018/10/15 14:25:49 5
2018/10/15 14:25:49 5
2018/10/15 14:25:49 5
2018/10/15 14:25:49 5
2018/10/15 14:25:49 5
2018/10/15 14:25:49 5
2018/10/15 14:25:49 5
2018/10/15 14:25:49 5
2018/10/15 14:25:49 5
2018/10/15 14:25:49 5
2018/10/15 14:25:49 5
2018/10/15 14:25:49 5
2018/10/15 14:25:49 5
2018/10/15 14:25:49 5
2018/10/15 14:25:49 5
2018/10/15 14:25:49 5
2018/10/15 14:25:49 4
2018/10/15 14:25:49 5
2018/10/15 14:25:49 5
2018/10/15 14:25:49 5
2018/10/15 14:25:49 5
2018/10/15 14:25:49 5
2018/10/15 14:25:49 5
2018/10/15 14:25:49 5
2018/10/15 14:25:49 5
2018/10/15 14:25:49 4
2018/10/15 14:25:49 5
2018/10/15 14:25:49 5
2018/10/15 14:25:49 5
2018/10/15 14:25:49 5
2018/10/15 14:25:49 5
2018/10/15 14:25:49 5
2018/10/15 14:25:49 5
2018/10/15 14:25:49 5
2018/10/15 14:25:49 5
2018/10/15 14:25:49 5
2018/10/15 14:25:49 5
2018/10/15 14:25:49 5
2018/10/15 14:25:49 5
2018/10/15 14:25:49 5
2018/10/15 14:25:49 5
2018/10/15 14:25:49 5
2018/10/15 14:25:50 5
2018/10/15 14:25:50 5
2018/10/15 14:25:50 4
2018/10/15 14:25:50 5
2018/10/15 14:25:50 4
2018/10/15 14:25:50 5
2018/10/15 14:25:50 5
2018/10/15 14:25:50 5
2018/10/15 14:25:50 5
2018/10/15 14:25:50 4
2018/10/15 14:25:50 5
2018/10/15 14:25:50 5
2018/10/15 14:25:50 5
2018/10/15 14:25:50 5
2018/10/15 14:25:50 10
2018/10/15 14:25:50 5
2018/10/15 14:25:50 5
2018/10/15 14:25:50 5
2018/10/15 14:25:50 5
2018/10/15 14:25:50 4
2018/10/15 14:25:50 5
2018/10/15 14:25:50 5
2018/10/15 14:25:50 5
2018/10/15 14:25:50 5
2018/10/15 14:25:50 5
2018/10/15 14:25:50 5
2018/10/15 14:25:50 5
2018/10/15 14:25:50 5
2018/10/15 14:25:50 5
2018/10/15 14:25:50 5
2018/10/15 14:25:50 5
2018/10/15 14:25:50 4
2018/10/15 14:25:50 5
2018/10/15 14:25:50 5
2018/10/15 14:25:50 5
2018/10/15 14:25:50 5
2018/10/15 14:25:50 5
2018/10/15 14:25:50 5
2018/10/15 14:25:50 5
2018/10/15 14:25:50 5
2018/10/15 14:25:50 5
2018/10/15 14:25:50 5
2018/10/15 14:25:50 5
2018/10/15 14:25:50 5
2018/10/15 14:25:50 5
2018/10/15 14:25:50 5
2018/10/15 14:25:50 5
2018/10/15 14:25:50 5
2018/10/15 14:25:50 5
2018/10/15 14:25:50 5
2018/10/15 14:25:51 5
2018/10/15 14:25:51 5
2018/10/15 14:25:51 5
2018/10/15 14:25:51 5
2018/10/15 14:25:51 5
2018/10/15 14:25:51 5
2018/10/15 14:25:51 5
2018/10/15 14:25:51 5
2018/10/15 14:25:51 4
2018/10/15 14:25:51 5
2018/10/15 14:25:51 5
2018/10/15 14:25:51 5
2018/10/15 14:25:51 4
2018/10/15 14:25:51 5
2018/10/15 14:25:51 5
2018/10/15 14:25:51 5
2018/10/15 14:25:51 5
2018/10/15 14:25:51 4
2018/10/15 14:25:51 5
2018/10/15 14:25:51 5
2018/10/15 14:25:51 5
2018/10/15 14:25:51 5
2018/10/15 14:25:51 5
2018/10/15 14:25:51 4
2018/10/15 14:25:51 5
2018/10/15 14:25:51 4
2018/10/15 14:25:51 6
2018/10/15 14:25:51 6
2018/10/15 14:25:51 6
2018/10/15 14:25:51 5
2018/10/15 14:25:51 5
2018/10/15 14:25:51 5
2018/10/15 14:25:51 5
2018/10/15 14:25:51 4
2018/10/15 14:25:51 5
2018/10/15 14:25:51 4
2018/10/15 14:25:51 4
2018/10/15 14:25:51 5
2018/10/15 14:25:51 5
2018/10/15 14:25:51 5
2018/10/15 14:25:51 5
2018/10/15 14:25:51 4
2018/10/15 14:25:51 5
2018/10/15 14:25:51 5
2018/10/15 14:25:51 5
2018/10/15 14:25:51 5
2018/10/15 14:25:51 5
2018/10/15 14:25:51 5
2018/10/15 14:25:51 5
2018/10/15 14:25:51 5
2018/10/15 14:25:52 5
2018/10/15 14:25:52 5
2018/10/15 14:25:52 6
2018/10/15 14:25:52 5
2018/10/15 14:25:52 5
2018/10/15 14:25:52 5
2018/10/15 14:25:52 4
2018/10/15 14:25:52 5
2018/10/15 14:25:52 5
2018/10/15 14:25:52 5
2018/10/15 14:25:52 5
2018/10/15 14:25:52 5
2018/10/15 14:25:52 5
2018/10/15 14:25:52 5
2018/10/15 14:25:52 5
2018/10/15 14:25:52 5
2018/10/15 14:25:52 5
2018/10/15 14:25:52 5
2018/10/15 14:25:52 5
2018/10/15 14:25:52 5
2018/10/15 14:25:52 5
2018/10/15 14:25:52 4
2018/10/15 14:25:52 5
2018/10/15 14:25:52 6
2018/10/15 14:25:52 6
2018/10/15 14:25:52 5
2018/10/15 14:25:52 5
2018/10/15 14:25:52 5
2018/10/15 14:25:52 5
2018/10/15 14:25:52 5
2018/10/15 14:25:52 5
2018/10/15 14:25:52 5
2018/10/15 14:25:52 5
2018/10/15 14:25:52 5
2018/10/15 14:25:52 5
2018/10/15 14:25:52 5
2018/10/15 14:25:52 5
2018/10/15 14:25:52 5
2018/10/15 14:25:52 5
2018/10/15 14:25:52 5
2018/10/15 14:25:52 5
2018/10/15 14:25:52 5
2018/10/15 14:25:52 4
2018/10/15 14:25:52 5
2018/10/15 14:25:52 5
2018/10/15 14:25:52 5
2018/10/15 14:25:52 6
2018/10/15 14:25:52 5
2018/10/15 14:25:52 4
2018/10/15 14:25:52 5
2018/10/15 14:25:53 5
2018/10/15 14:25:53 5
2018/10/15 14:25:53 4
2018/10/15 14:25:53 5
2018/10/15 14:25:53 5
2018/10/15 14:25:53 4
2018/10/15 14:25:53 6
2018/10/15 14:25:53 5
2018/10/15 14:25:53 4
2018/10/15 14:25:53 5
2018/10/15 14:25:53 5
2018/10/15 14:25:53 5
2018/10/15 14:25:53 5
2018/10/15 14:25:53 5
2018/10/15 14:25:53 5
2018/10/15 14:25:53 5
2018/10/15 14:25:53 5
2018/10/15 14:25:53 5
2018/10/15 14:25:53 4
2018/10/15 14:25:53 5
2018/10/15 14:25:53 5
2018/10/15 14:25:53 5
2018/10/15 14:25:53 5
2018/10/15 14:25:53 5
2018/10/15 14:25:53 5
2018/10/15 14:25:53 5
2018/10/15 14:25:53 5
2018/10/15 14:25:53 4
2018/10/15 14:25:53 5
2018/10/15 14:25:53 5
2018/10/15 14:25:53 5
2018/10/15 14:25:53 5
2018/10/15 14:25:53 5
2018/10/15 14:25:53 5
2018/10/15 14:25:53 5
2018/10/15 14:25:53 5
2018/10/15 14:25:53 5
2018/10/15 14:25:53 5
2018/10/15 14:25:53 5
2018/10/15 14:25:53 5
2018/10/15 14:25:53 5
2018/10/15 14:25:53 5
2018/10/15 14:25:53 5
2018/10/15 14:25:53 5
2018/10/15 14:25:53 5
2018/10/15 14:25:53 5
2018/10/15 14:25:53 4
2018/10/15 14:25:53 5
2018/10/15 14:25:53 5
2018/10/15 14:25:53 5
2018/10/15 14:25:54 5
2018/10/15 14:25:54 4
2018/10/15 14:25:54 4
2018/10/15 14:25:54 5
2018/10/15 14:25:54 5
2018/10/15 14:25:54 5
2018/10/15 14:25:54 5
2018/10/15 14:25:54 5
2018/10/15 14:25:54 4
2018/10/15 14:25:54 5
2018/10/15 14:25:54 5
2018/10/15 14:25:54 5
2018/10/15 14:25:54 5
2018/10/15 14:25:54 5
2018/10/15 14:25:54 5
2018/10/15 14:25:54 5
2018/10/15 14:25:54 5
2018/10/15 14:25:54 5
2018/10/15 14:25:54 5
2018/10/15 14:25:54 5
2018/10/15 14:25:54 4
2018/10/15 14:25:54 5
2018/10/15 14:25:54 4
2018/10/15 14:25:54 5
2018/10/15 14:25:54 4
2018/10/15 14:25:54 5
2018/10/15 14:25:54 5
2018/10/15 14:25:54 5
2018/10/15 14:25:54 5
2018/10/15 14:25:54 5
2018/10/15 14:25:54 5
2018/10/15 14:25:54 5
2018/10/15 14:25:54 5
2018/10/15 14:25:54 5
2018/10/15 14:25:54 5
2018/10/15 14:25:54 5
2018/10/15 14:25:54 5
2018/10/15 14:25:54 5
2018/10/15 14:25:54 4
2018/10/15 14:25:54 5
2018/10/15 14:25:54 5
2018/10/15 14:25:54 5
2018/10/15 14:25:54 5
2018/10/15 14:25:54 5
2018/10/15 14:25:54 5
2018/10/15 14:25:54 5
2018/10/15 14:25:54 5
2018/10/15 14:25:54 5
2018/10/15 14:25:54 5
2018/10/15 14:25:54 5
2018/10/15 14:25:55 5
2018/10/15 14:25:55 5
2018/10/15 14:25:55 4
2018/10/15 14:25:55 4
2018/10/15 14:25:55 5
2018/10/15 14:25:55 4
2018/10/15 14:25:55 5
2018/10/15 14:25:55 5
2018/10/15 14:25:55 5
2018/10/15 14:25:55 5
2018/10/15 14:25:55 5
2018/10/15 14:25:55 5
2018/10/15 14:25:55 5
2018/10/15 14:25:55 5
2018/10/15 14:25:55 5
2018/10/15 14:25:55 5
2018/10/15 14:25:55 5
2018/10/15 14:25:55 5
2018/10/15 14:25:55 4
2018/10/15 14:25:55 5
2018/10/15 14:25:55 4
2018/10/15 14:25:55 5
2018/10/15 14:25:55 5
2018/10/15 14:25:55 5
2018/10/15 14:25:55 5
2018/10/15 14:25:55 5
2018/10/15 14:25:55 5
2018/10/15 14:25:55 5
2018/10/15 14:25:55 5
2018/10/15 14:25:55 4
2018/10/15 14:25:55 5
2018/10/15 14:25:55 4
2018/10/15 14:25:55 5
2018/10/15 14:25:55 4
2018/10/15 14:25:55 5
2018/10/15 14:25:55 5
2018/10/15 14:25:55 5
2018/10/15 14:25:55 4
2018/10/15 14:25:55 5
2018/10/15 14:25:55 5
2018/10/15 14:25:55 5
2018/10/15 14:25:55 8
2018/10/15 14:25:55 5
2018/10/15 14:25:55 4
2018/10/15 14:25:55 5
2018/10/15 14:25:55 5
2018/10/15 14:25:55 5
2018/10/15 14:25:55 5
2018/10/15 14:25:55 4
2018/10/15 14:25:55 5
2018/10/15 14:25:56 5
2018/10/15 14:25:56 5
2018/10/15 14:25:56 5
2018/10/15 14:25:56 5
2018/10/15 14:25:56 4
2018/10/15 14:25:56 5
2018/10/15 14:25:56 5
2018/10/15 14:25:56 5
2018/10/15 14:25:56 5
2018/10/15 14:25:56 5
2018/10/15 14:25:56 5
2018/10/15 14:25:56 5
2018/10/15 14:25:56 5
2018/10/15 14:25:56 5
2018/10/15 14:25:56 5
2018/10/15 14:25:56 5
2018/10/15 14:25:56 5
2018/10/15 14:25:56 4
2018/10/15 14:25:56 5
2018/10/15 14:25:56 5
2018/10/15 14:25:56 4
2018/10/15 14:25:56 5
2018/10/15 14:25:56 4
2018/10/15 14:25:56 5
2018/10/15 14:25:56 5
2018/10/15 14:25:56 5
2018/10/15 14:25:56 5
2018/10/15 14:25:56 5
2018/10/15 14:25:56 5
2018/10/15 14:25:56 4
2018/10/15 14:25:56 5
2018/10/15 14:25:56 5
2018/10/15 14:25:56 5
2018/10/15 14:25:56 4
2018/10/15 14:25:56 5
2018/10/15 14:25:56 5
2018/10/15 14:25:56 4
2018/10/15 14:25:56 5
2018/10/15 14:25:56 5
2018/10/15 14:25:56 4
2018/10/15 14:25:56 4
2018/10/15 14:25:56 5
2018/10/15 14:25:56 5
2018/10/15 14:25:56 4
2018/10/15 14:25:56 5
2018/10/15 14:25:56 5
2018/10/15 14:25:56 5
2018/10/15 14:25:56 4
2018/10/15 14:25:56 5
2018/10/15 14:25:56 5
2018/10/15 14:25:57 4
2018/10/15 14:25:57 5
2018/10/15 14:25:57 4
2018/10/15 14:25:57 5
2018/10/15 14:25:57 5
2018/10/15 14:25:57 5
2018/10/15 14:25:57 5
2018/10/15 14:25:57 5
2018/10/15 14:25:57 5
2018/10/15 14:25:57 5
2018/10/15 14:25:57 4
2018/10/15 14:25:57 5
2018/10/15 14:25:57 5
2018/10/15 14:25:57 5
2018/10/15 14:25:57 5
2018/10/15 14:25:57 4
2018/10/15 14:25:57 5
2018/10/15 14:25:57 5
2018/10/15 14:25:57 5
2018/10/15 14:25:57 5
2018/10/15 14:25:57 5
2018/10/15 14:25:57 5
2018/10/15 14:25:57 5
2018/10/15 14:25:57 5
2018/10/15 14:25:57 5
2018/10/15 14:25:57 4
2018/10/15 14:25:57 4
2018/10/15 14:25:57 5
2018/10/15 14:25:57 5
2018/10/15 14:25:57 5
2018/10/15 14:25:57 5
2018/10/15 14:25:57 5
2018/10/15 14:25:57 4
2018/10/15 14:25:57 4
2018/10/15 14:25:57 5
2018/10/15 14:25:57 5
2018/10/15 14:25:57 4
2018/10/15 14:25:57 5
2018/10/15 14:25:57 5
2018/10/15 14:25:57 5
2018/10/15 14:25:57 5
2018/10/15 14:25:57 5
2018/10/15 14:25:57 5
2018/10/15 14:25:57 5
2018/10/15 14:25:57 4
2018/10/15 14:25:57 5
2018/10/15 14:25:57 5
2018/10/15 14:25:57 5
2018/10/15 14:25:57 5
2018/10/15 14:25:57 6
2018/10/15 14:25:58 7
2018/10/15 14:25:58 7
2018/10/15 14:25:58 7
2018/10/15 14:25:58 6
2018/10/15 14:25:58 8
2018/10/15 14:25:58 7
2018/10/15 14:25:58 8
2018/10/15 14:25:58 6
2018/10/15 14:25:58 5
2018/10/15 14:25:58 6
2018/10/15 14:25:58 6
2018/10/15 14:25:58 6
2018/10/15 14:25:58 6
2018/10/15 14:25:58 6
2018/10/15 14:25:58 7
2018/10/15 14:25:58 8
2018/10/15 14:25:58 8
2018/10/15 14:25:58 7
2018/10/15 14:25:58 6
2018/10/15 14:25:58 6
2018/10/15 14:25:58 5
2018/10/15 14:25:58 5
2018/10/15 14:25:58 7
2018/10/15 14:25:58 5
2018/10/15 14:25:58 5
2018/10/15 14:25:58 5
2018/10/15 14:25:58 8
2018/10/15 14:25:58 7
2018/10/15 14:25:58 7
2018/10/15 14:25:58 5
2018/10/15 14:25:58 7
2018/10/15 14:25:58 4
2018/10/15 14:25:58 4
2018/10/15 14:25:58 5
2018/10/15 14:25:58 4
2018/10/15 14:25:58 5
2018/10/15 14:25:58 5
2018/10/15 14:25:58 5
2018/10/15 14:25:58 5
2018/10/15 14:25:58 5
2018/10/15 14:25:58 5
2018/10/15 14:25:58 5
2018/10/15 14:25:58 8
2018/10/15 14:25:58 4
2018/10/15 14:25:58 5
2018/10/15 14:25:58 6
2018/10/15 14:25:58 5
2018/10/15 14:25:58 5
2018/10/15 14:25:58 6
2018/10/15 14:25:58 5
2018/10/15 14:25:59 6
2018/10/15 14:25:59 5
2018/10/15 14:25:59 5
2018/10/15 14:25:59 5
2018/10/15 14:25:59 5
2018/10/15 14:25:59 5
2018/10/15 14:25:59 5
2018/10/15 14:25:59 4
2018/10/15 14:25:59 5
2018/10/15 14:25:59 5
2018/10/15 14:25:59 5
2018/10/15 14:25:59 5
2018/10/15 14:25:59 5
2018/10/15 14:25:59 4
2018/10/15 14:25:59 5
2018/10/15 14:25:59 5
2018/10/15 14:25:59 5
2018/10/15 14:25:59 5
2018/10/15 14:25:59 5
2018/10/15 14:25:59 5
2018/10/15 14:25:59 5
2018/10/15 14:25:59 5
2018/10/15 14:25:59 4
2018/10/15 14:25:59 5
2018/10/15 14:25:59 5
2018/10/15 14:25:59 5
2018/10/15 14:25:59 4
2018/10/15 14:25:59 5
2018/10/15 14:25:59 4
2018/10/15 14:25:59 5
2018/10/15 14:25:59 4
2018/10/15 14:25:59 4
2018/10/15 14:25:59 5
2018/10/15 14:25:59 5
2018/10/15 14:25:59 5
2018/10/15 14:25:59 5
2018/10/15 14:25:59 5
2018/10/15 14:25:59 5
2018/10/15 14:25:59 5
2018/10/15 14:25:59 5
2018/10/15 14:25:59 5
2018/10/15 14:25:59 5
2018/10/15 14:25:59 8
2018/10/15 14:25:59 5
2018/10/15 14:25:59 4
2018/10/15 14:25:59 5
2018/10/15 14:25:59 5
2018/10/15 14:25:59 5
2018/10/15 14:25:59 5
2018/10/15 14:25:59 5
2018/10/15 14:26:00 5
2018/10/15 14:26:00 5
2018/10/15 14:26:00 5
2018/10/15 14:26:00 5
2018/10/15 14:26:00 5
2018/10/15 14:26:00 5
2018/10/15 14:26:00 5
2018/10/15 14:26:00 4
2018/10/15 14:26:00 7
2018/10/15 14:26:00 5
2018/10/15 14:26:00 5
2018/10/15 14:26:00 5
2018/10/15 14:26:00 6
2018/10/15 14:26:00 7
2018/10/15 14:26:00 5
2018/10/15 14:26:00 5
2018/10/15 14:26:00 5
2018/10/15 14:26:00 5
2018/10/15 14:26:00 5
2018/10/15 14:26:00 5
2018/10/15 14:26:00 5
2018/10/15 14:26:00 5
2018/10/15 14:26:00 5
2018/10/15 14:26:00 5
2018/10/15 14:26:00 5
2018/10/15 14:26:00 6
2018/10/15 14:26:00 5
2018/10/15 14:26:00 5
2018/10/15 14:26:00 4
2018/10/15 14:26:00 5
2018/10/15 14:26:00 5
2018/10/15 14:26:00 5
2018/10/15 14:26:00 4
2018/10/15 14:26:00 4
2018/10/15 14:26:00 5
2018/10/15 14:26:00 5
2018/10/15 14:26:00 5
2018/10/15 14:26:00 8
2018/10/15 14:26:00 5
2018/10/15 14:26:00 5
2018/10/15 14:26:00 4
2018/10/15 14:26:00 5
2018/10/15 14:26:00 5
2018/10/15 14:26:00 5
2018/10/15 14:26:00 5
2018/10/15 14:26:00 5
2018/10/15 14:26:00 5
2018/10/15 14:26:00 5
2018/10/15 14:26:00 5
2018/10/15 14:26:00 5
2018/10/15 14:26:01 5
2018/10/15 14:26:01 5
2018/10/15 14:26:01 5
2018/10/15 14:26:01 5
2018/10/15 14:26:01 5
2018/10/15 14:26:01 5
2018/10/15 14:26:01 5
2018/10/15 14:26:01 5
2018/10/15 14:26:01 5
2018/10/15 14:26:01 5
2018/10/15 14:26:01 5
2018/10/15 14:26:01 6
2018/10/15 14:26:01 5
2018/10/15 14:26:01 5
2018/10/15 14:26:01 5
2018/10/15 14:26:01 5
2018/10/15 14:26:01 5
2018/10/15 14:26:01 5
2018/10/15 14:26:01 4
2018/10/15 14:26:01 5
2018/10/15 14:26:01 5
2018/10/15 14:26:01 5
2018/10/15 14:26:01 5
2018/10/15 14:26:01 5
2018/10/15 14:26:01 5
2018/10/15 14:26:01 5
2018/10/15 14:26:01 5
2018/10/15 14:26:01 5
2018/10/15 14:26:01 4
2018/10/15 14:26:01 5
2018/10/15 14:26:01 9
2018/10/15 14:26:01 5
2018/10/15 14:26:01 4
2018/10/15 14:26:01 5
2018/10/15 14:26:01 5
2018/10/15 14:26:01 5
2018/10/15 14:26:01 5
2018/10/15 14:26:01 5
2018/10/15 14:26:01 5
2018/10/15 14:26:01 5
2018/10/15 14:26:01 5
2018/10/15 14:26:01 4
2018/10/15 14:26:01 5
2018/10/15 14:26:01 5
2018/10/15 14:26:01 5
2018/10/15 14:26:01 5
2018/10/15 14:26:01 5
2018/10/15 14:26:01 5
2018/10/15 14:26:01 5
2018/10/15 14:26:01 5
2018/10/15 14:26:02 5
2018/10/15 14:26:02 5
2018/10/15 14:26:02 6
2018/10/15 14:26:02 5
2018/10/15 14:26:02 5
2018/10/15 14:26:02 5
2018/10/15 14:26:02 5
2018/10/15 14:26:02 4
2018/10/15 14:26:02 5
2018/10/15 14:26:02 5
2018/10/15 14:26:02 5
2018/10/15 14:26:02 5
2018/10/15 14:26:02 5
2018/10/15 14:26:02 5
2018/10/15 14:26:02 5
2018/10/15 14:26:02 5
2018/10/15 14:26:02 5
2018/10/15 14:26:02 5
2018/10/15 14:26:02 5
2018/10/15 14:26:02 5
2018/10/15 14:26:02 5
2018/10/15 14:26:02 5
2018/10/15 14:26:02 5
2018/10/15 14:26:02 5
2018/10/15 14:26:02 4
2018/10/15 14:26:02 4
2018/10/15 14:26:02 5
2018/10/15 14:26:02 5
2018/10/15 14:26:02 5
2018/10/15 14:26:02 5
2018/10/15 14:26:02 5
2018/10/15 14:26:02 5
2018/10/15 14:26:02 4
2018/10/15 14:26:02 5
2018/10/15 14:26:02 5
2018/10/15 14:26:02 5
2018/10/15 14:26:02 5
2018/10/15 14:26:02 4
2018/10/15 14:26:02 5
2018/10/15 14:26:02 5
2018/10/15 14:26:02 5
2018/10/15 14:26:02 5
2018/10/15 14:26:02 5
2018/10/15 14:26:02 4
2018/10/15 14:26:02 5
2018/10/15 14:26:02 5
2018/10/15 14:26:02 5
2018/10/15 14:26:02 6
2018/10/15 14:26:02 5
2018/10/15 14:26:02 5
2018/10/15 14:26:03 5
2018/10/15 14:26:03 5
2018/10/15 14:26:03 5
2018/10/15 14:26:03 5
2018/10/15 14:26:03 5
2018/10/15 14:26:03 4
2018/10/15 14:26:03 5
2018/10/15 14:26:03 5
2018/10/15 14:26:03 5
2018/10/15 14:26:03 5
2018/10/15 14:26:03 5
2018/10/15 14:26:03 5
2018/10/15 14:26:03 5
2018/10/15 14:26:03 5
2018/10/15 14:26:03 5
2018/10/15 14:26:03 5
2018/10/15 14:26:03 5
2018/10/15 14:26:03 5
2018/10/15 14:26:03 5
2018/10/15 14:26:03 5
2018/10/15 14:26:03 4
2018/10/15 14:26:03 5
2018/10/15 14:26:03 5
2018/10/15 14:26:03 5
2018/10/15 14:26:03 5
2018/10/15 14:26:03 5
2018/10/15 14:26:03 5
2018/10/15 14:26:03 5
2018/10/15 14:26:03 5
2018/10/15 14:26:03 5
2018/10/15 14:26:03 5
2018/10/15 14:26:03 5
2018/10/15 14:26:03 4
2018/10/15 14:26:03 4
2018/10/15 14:26:03 4
2018/10/15 14:26:03 5
2018/10/15 14:26:03 5
2018/10/15 14:26:03 5
2018/10/15 14:26:03 4
2018/10/15 14:26:03 5
2018/10/15 14:26:03 5
2018/10/15 14:26:03 5
2018/10/15 14:26:03 4
2018/10/15 14:26:03 5
2018/10/15 14:26:03 5
2018/10/15 14:26:03 4
2018/10/15 14:26:03 5
2018/10/15 14:26:03 5
2018/10/15 14:26:03 5
2018/10/15 14:26:03 4
2018/10/15 14:26:04 5
2018/10/15 14:26:04 5
2018/10/15 14:26:04 5
2018/10/15 14:26:04 5
2018/10/15 14:26:04 5
2018/10/15 14:26:04 5
2018/10/15 14:26:04 5
2018/10/15 14:26:04 5
2018/10/15 14:26:04 5
2018/10/15 14:26:04 5
2018/10/15 14:26:04 5
2018/10/15 14:26:04 4
2018/10/15 14:26:04 5
2018/10/15 14:26:04 5
2018/10/15 14:26:04 4
2018/10/15 14:26:04 5
2018/10/15 14:26:04 5
2018/10/15 14:26:04 4
2018/10/15 14:26:04 5
2018/10/15 14:26:04 5
2018/10/15 14:26:04 5
2018/10/15 14:26:04 5
2018/10/15 14:26:04 5
2018/10/15 14:26:04 5
2018/10/15 14:26:04 4
2018/10/15 14:26:04 5
2018/10/15 14:26:04 5
2018/10/15 14:26:04 5
2018/10/15 14:26:04 4
2018/10/15 14:26:04 5
2018/10/15 14:26:04 5
2018/10/15 14:26:04 4
2018/10/15 14:26:04 5
2018/10/15 14:26:04 5
2018/10/15 14:26:04 5
2018/10/15 14:26:04 5
2018/10/15 14:26:04 5
2018/10/15 14:26:04 5
2018/10/15 14:26:04 5
2018/10/15 14:26:04 5
2018/10/15 14:26:04 5
2018/10/15 14:26:04 5
2018/10/15 14:26:04 5
