2018/10/15 14:34:35 15
2018/10/15 14:34:35 16
2018/10/15 14:34:35 16
2018/10/15 14:34:35 17
2018/10/15 14:34:35 17
2018/10/15 14:34:35 17
2018/10/15 14:34:35 17
2018/10/15 14:34:35 17
2018/10/15 14:34:35 19
2018/10/15 14:34:35 20
2018/10/15 14:34:35 20
2018/10/15 14:34:35 21
2018/10/15 14:34:35 21
2018/10/15 14:34:35 21
2018/10/15 14:34:35 21
2018/10/15 14:34:35 22
2018/10/15 14:34:35 23
2018/10/15 14:34:35 24
2018/10/15 14:34:35 24
2018/10/15 14:34:35 24
2018/10/15 14:34:35 24
2018/10/15 14:34:35 24
2018/10/15 14:34:35 24
2018/10/15 14:34:35 24
2018/10/15 14:34:35 26
2018/10/15 14:34:35 26
2018/10/15 14:34:35 28
2018/10/15 14:34:35 28
2018/10/15 14:34:35 29
2018/10/15 14:34:35 29
2018/10/15 14:34:35 29
2018/10/15 14:34:35 29
2018/10/15 14:34:35 29
2018/10/15 14:34:35 30
2018/10/15 14:34:35 31
2018/10/15 14:34:35 31
2018/10/15 14:34:35 32
2018/10/15 14:34:35 32
2018/10/15 14:34:35 32
2018/10/15 14:34:35 32
2018/10/15 14:34:35 32
2018/10/15 14:34:35 32
2018/10/15 14:34:35 33
2018/10/15 14:34:35 34
2018/10/15 14:34:35 34
2018/10/15 14:34:35 35
2018/10/15 14:34:35 35
2018/10/15 14:34:35 36
2018/10/15 14:34:35 36
2018/10/15 14:34:35 37
2018/10/15 14:34:35 37
2018/10/15 14:34:35 38
2018/10/15 14:34:35 38
2018/10/15 14:34:35 38
2018/10/15 14:34:35 38
2018/10/15 14:34:35 39
2018/10/15 14:34:35 39
2018/10/15 14:34:35 39
2018/10/15 14:34:35 40
2018/10/15 14:34:35 41
2018/10/15 14:34:35 41
2018/10/15 14:34:35 41
2018/10/15 14:34:35 42
2018/10/15 14:34:35 42
2018/10/15 14:34:35 42
2018/10/15 14:34:35 43
2018/10/15 14:34:35 43
2018/10/15 14:34:35 44
2018/10/15 14:34:35 44
2018/10/15 14:34:35 44
2018/10/15 14:34:35 45
2018/10/15 14:34:35 45
2018/10/15 14:34:35 46
2018/10/15 14:34:35 46
2018/10/15 14:34:35 46
2018/10/15 14:34:36 47
2018/10/15 14:34:36 48
2018/10/15 14:34:36 48
2018/10/15 14:34:36 48
2018/10/15 14:34:36 49
2018/10/15 14:34:36 49
2018/10/15 14:34:36 49
2018/10/15 14:34:36 49
2018/10/15 14:34:36 50
2018/10/15 14:34:36 50
2018/10/15 14:34:36 51
2018/10/15 14:34:36 51
2018/10/15 14:34:36 52
2018/10/15 14:34:36 52
2018/10/15 14:34:36 52
2018/10/15 14:34:36 53
2018/10/15 14:34:36 53
2018/10/15 14:34:36 53
2018/10/15 14:34:36 54
2018/10/15 14:34:36 55
2018/10/15 14:34:36 55
2018/10/15 14:34:36 56
2018/10/15 14:34:36 56
2018/10/15 14:34:36 56
2018/10/15 14:34:36 56
2018/10/15 14:34:36 57
2018/10/15 14:34:36 55
2018/10/15 14:34:36 54
2018/10/15 14:34:36 55
2018/10/15 14:34:36 54
2018/10/15 14:34:36 53
2018/10/15 14:34:36 53
2018/10/15 14:34:36 52
2018/10/15 14:34:36 50
2018/10/15 14:34:36 49
2018/10/15 14:34:36 51
2018/10/15 14:34:36 49
2018/10/15 14:34:36 48
2018/10/15 14:34:36 49
2018/10/15 14:34:36 48
2018/10/15 14:34:36 55
2018/10/15 14:34:36 47
2018/10/15 14:34:36 46
2018/10/15 14:34:36 46
2018/10/15 14:34:36 45
2018/10/15 14:34:36 45
2018/10/15 14:34:36 44
2018/10/15 14:34:36 44
2018/10/15 14:34:36 42
2018/10/15 14:34:36 43
2018/10/15 14:34:36 42
2018/10/15 14:34:36 40
2018/10/15 14:34:36 41
2018/10/15 14:34:36 39
2018/10/15 14:34:36 41
2018/10/15 14:34:36 40
2018/10/15 14:34:36 38
2018/10/15 14:34:36 38
2018/10/15 14:34:36 37
2018/10/15 14:34:36 37
2018/10/15 14:34:36 36
2018/10/15 14:34:36 35
2018/10/15 14:34:36 35
2018/10/15 14:34:36 33
2018/10/15 14:34:36 34
2018/10/15 14:34:36 32
2018/10/15 14:34:36 33
2018/10/15 14:34:36 32
2018/10/15 14:34:36 31
2018/10/15 14:34:36 30
2018/10/15 14:34:36 30
2018/10/15 14:34:36 29
2018/10/15 14:34:36 30
2018/10/15 14:34:36 28
2018/10/15 14:34:36 27
2018/10/15 14:34:36 27
2018/10/15 14:34:36 25
2018/10/15 14:34:36 26
2018/10/15 14:34:36 25
2018/10/15 14:34:36 24
2018/10/15 14:34:36 24
2018/10/15 14:34:36 23
2018/10/15 14:34:36 21
2018/10/15 14:34:36 23
2018/10/15 14:34:36 21
2018/10/15 14:34:36 21
2018/10/15 14:34:36 20
2018/10/15 14:34:36 19
2018/10/15 14:34:36 19
2018/10/15 14:34:36 18
2018/10/15 14:34:36 16
2018/10/15 14:34:36 18
2018/10/15 14:34:36 17
2018/10/15 14:34:36 15
2018/10/15 14:34:36 15
2018/10/15 14:34:36 15
2018/10/15 14:34:36 13
2018/10/15 14:34:36 14
2018/10/15 14:34:36 13
2018/10/15 14:34:36 12
2018/10/15 14:34:36 12
2018/10/15 14:34:36 11
2018/10/15 14:34:36 9
2018/10/15 14:34:36 10
2018/10/15 14:34:36 9
2018/10/15 14:34:36 8
2018/10/15 14:34:36 7
2018/10/15 14:34:36 9
2018/10/15 14:34:36 6
2018/10/15 14:34:36 7
2018/10/15 14:34:36 5
2018/10/15 14:34:36 5
2018/10/15 14:34:36 4
2018/10/15 14:34:36 4
2018/10/15 14:34:36 3
2018/10/15 14:34:36 3
2018/10/15 14:34:36 3
2018/10/15 14:34:36 3
2018/10/15 14:34:36 4
2018/10/15 14:34:36 4
2018/10/15 14:34:36 4
2018/10/15 14:34:36 4
2018/10/15 14:34:36 4
2018/10/15 14:34:36 4
2018/10/15 14:34:36 4
2018/10/15 14:34:36 4
2018/10/15 14:34:36 4
2018/10/15 14:34:36 4
2018/10/15 14:34:36 4
2018/10/15 14:34:36 5
2018/10/15 14:34:36 4
2018/10/15 14:34:36 4
2018/10/15 14:34:36 4
2018/10/15 14:34:36 4
2018/10/15 14:34:36 4
2018/10/15 14:34:36 4
2018/10/15 14:34:36 4
2018/10/15 14:34:36 4
2018/10/15 14:34:36 4
2018/10/15 14:34:36 4
2018/10/15 14:34:36 4
2018/10/15 14:34:36 4
2018/10/15 14:34:36 4
2018/10/15 14:34:36 4
2018/10/15 14:34:36 4
2018/10/15 14:34:36 3
2018/10/15 14:34:36 4
2018/10/15 14:34:36 4
2018/10/15 14:34:36 4
2018/10/15 14:34:36 4
2018/10/15 14:34:36 4
2018/10/15 14:34:36 3
2018/10/15 14:34:36 3
2018/10/15 14:34:36 3
2018/10/15 14:34:36 4
2018/10/15 14:34:36 3
2018/10/15 14:34:36 4
2018/10/15 14:34:36 3
2018/10/15 14:34:36 4
2018/10/15 14:34:36 3
2018/10/15 14:34:36 4
2018/10/15 14:34:36 4
2018/10/15 14:34:36 4
2018/10/15 14:34:36 4
2018/10/15 14:34:36 3
2018/10/15 14:34:36 4
2018/10/15 14:34:36 3
2018/10/15 14:34:37 3
2018/10/15 14:34:37 4
2018/10/15 14:34:37 4
2018/10/15 14:34:37 4
2018/10/15 14:34:37 4
2018/10/15 14:34:37 4
2018/10/15 14:34:37 4
2018/10/15 14:34:37 3
2018/10/15 14:34:37 4
2018/10/15 14:34:37 4
2018/10/15 14:34:37 3
2018/10/15 14:34:37 4
2018/10/15 14:34:37 4
2018/10/15 14:34:37 3
2018/10/15 14:34:37 4
2018/10/15 14:34:37 3
2018/10/15 14:34:37 4
2018/10/15 14:34:37 3
2018/10/15 14:34:37 3
2018/10/15 14:34:37 4
2018/10/15 14:34:37 4
2018/10/15 14:34:37 4
2018/10/15 14:34:37 4
2018/10/15 14:34:37 4
2018/10/15 14:34:37 4
2018/10/15 14:34:37 3
2018/10/15 14:34:37 3
2018/10/15 14:34:37 4
2018/10/15 14:34:37 4
2018/10/15 14:34:37 4
2018/10/15 14:34:37 3
2018/10/15 14:34:37 4
2018/10/15 14:34:37 4
2018/10/15 14:34:37 4
2018/10/15 14:34:37 4
2018/10/15 14:34:37 4
2018/10/15 14:34:37 4
2018/10/15 14:34:37 4
2018/10/15 14:34:37 4
2018/10/15 14:34:37 4
2018/10/15 14:34:37 4
2018/10/15 14:34:37 4
2018/10/15 14:34:37 4
2018/10/15 14:34:37 5
2018/10/15 14:34:37 4
2018/10/15 14:34:37 3
2018/10/15 14:34:37 4
2018/10/15 14:34:37 4
2018/10/15 14:34:37 4
2018/10/15 14:34:37 4
2018/10/15 14:34:37 3
2018/10/15 14:34:37 3
2018/10/15 14:34:37 3
2018/10/15 14:34:37 3
2018/10/15 14:34:37 3
2018/10/15 14:34:37 3
2018/10/15 14:34:37 3
2018/10/15 14:34:37 4
2018/10/15 14:34:37 3
2018/10/15 14:34:37 4
2018/10/15 14:34:37 4
2018/10/15 14:34:37 4
2018/10/15 14:34:37 4
2018/10/15 14:34:37 4
2018/10/15 14:34:37 3
2018/10/15 14:34:37 4
2018/10/15 14:34:37 4
2018/10/15 14:34:37 4
2018/10/15 14:34:37 4
2018/10/15 14:34:37 4
2018/10/15 14:34:37 4
2018/10/15 14:34:37 4
2018/10/15 14:34:37 3
2018/10/15 14:34:37 4
2018/10/15 14:34:37 4
2018/10/15 14:34:37 4
2018/10/15 14:34:37 4
2018/10/15 14:34:37 4
2018/10/15 14:34:37 4
2018/10/15 14:34:37 3
2018/10/15 14:34:37 5
2018/10/15 14:34:37 4
2018/10/15 14:34:37 4
2018/10/15 14:34:37 4
2018/10/15 14:34:37 4
2018/10/15 14:34:37 3
2018/10/15 14:34:37 4
2018/10/15 14:34:37 4
2018/10/15 14:34:37 4
2018/10/15 14:34:37 4
2018/10/15 14:34:37 3
2018/10/15 14:34:37 4
2018/10/15 14:34:37 3
2018/10/15 14:34:37 3
2018/10/15 14:34:37 4
2018/10/15 14:34:37 4
2018/10/15 14:34:37 3
2018/10/15 14:34:37 4
2018/10/15 14:34:37 4
2018/10/15 14:34:37 4
2018/10/15 14:34:37 3
2018/10/15 14:34:38 3
2018/10/15 14:34:38 4
2018/10/15 14:34:38 4
2018/10/15 14:34:38 3
2018/10/15 14:34:38 3
2018/10/15 14:34:38 4
2018/10/15 14:34:38 4
2018/10/15 14:34:38 3
2018/10/15 14:34:38 3
2018/10/15 14:34:38 4
2018/10/15 14:34:38 4
2018/10/15 14:34:38 4
2018/10/15 14:34:38 3
2018/10/15 14:34:38 4
2018/10/15 14:34:38 3
2018/10/15 14:34:38 4
2018/10/15 14:34:38 4
2018/10/15 14:34:38 4
2018/10/15 14:34:38 4
2018/10/15 14:34:38 4
2018/10/15 14:34:38 4
2018/10/15 14:34:38 4
2018/10/15 14:34:38 4
2018/10/15 14:34:38 6
2018/10/15 14:34:38 4
2018/10/15 14:34:38 3
2018/10/15 14:34:38 4
2018/10/15 14:34:38 4
2018/10/15 14:34:38 4
2018/10/15 14:34:38 4
2018/10/15 14:34:38 3
2018/10/15 14:34:38 3
2018/10/15 14:34:38 4
2018/10/15 14:34:38 4
2018/10/15 14:34:38 4
2018/10/15 14:34:38 4
2018/10/15 14:34:38 4
2018/10/15 14:34:38 4
2018/10/15 14:34:38 3
2018/10/15 14:34:38 4
2018/10/15 14:34:38 4
2018/10/15 14:34:38 3
2018/10/15 14:34:38 4
2018/10/15 14:34:38 4
2018/10/15 14:34:38 3
2018/10/15 14:34:38 4
2018/10/15 14:34:38 3
2018/10/15 14:34:38 4
2018/10/15 14:34:38 4
2018/10/15 14:34:38 4
2018/10/15 14:34:38 3
2018/10/15 14:34:38 3
2018/10/15 14:34:38 4
2018/10/15 14:34:38 4
2018/10/15 14:34:38 4
2018/10/15 14:34:38 4
2018/10/15 14:34:38 4
2018/10/15 14:34:38 4
2018/10/15 14:34:38 3
2018/10/15 14:34:38 4
2018/10/15 14:34:38 4
2018/10/15 14:34:38 4
2018/10/15 14:34:38 4
2018/10/15 14:34:38 4
2018/10/15 14:34:38 3
2018/10/15 14:34:38 4
2018/10/15 14:34:38 4
2018/10/15 14:34:38 4
2018/10/15 14:34:38 4
2018/10/15 14:34:38 3
2018/10/15 14:34:38 4
2018/10/15 14:34:38 4
2018/10/15 14:34:38 4
2018/10/15 14:34:38 4
2018/10/15 14:34:38 4
2018/10/15 14:34:38 4
2018/10/15 14:34:38 3
2018/10/15 14:34:38 4
2018/10/15 14:34:38 4
2018/10/15 14:34:38 4
2018/10/15 14:34:38 3
2018/10/15 14:34:38 4
2018/10/15 14:34:38 4
2018/10/15 14:34:38 3
2018/10/15 14:34:38 4
2018/10/15 14:34:38 4
2018/10/15 14:34:38 4
2018/10/15 14:34:38 5
2018/10/15 14:34:38 3
2018/10/15 14:34:38 4
2018/10/15 14:34:38 4
2018/10/15 14:34:38 3
2018/10/15 14:34:38 4
2018/10/15 14:34:38 4
2018/10/15 14:34:38 3
2018/10/15 14:34:38 4
2018/10/15 14:34:38 3
2018/10/15 14:34:38 5
2018/10/15 14:34:38 4
2018/10/15 14:34:38 3
2018/10/15 14:34:39 4
2018/10/15 14:34:39 4
2018/10/15 14:34:39 4
2018/10/15 14:34:39 4
2018/10/15 14:34:39 4
2018/10/15 14:34:39 4
2018/10/15 14:34:39 4
2018/10/15 14:34:39 3
2018/10/15 14:34:39 3
2018/10/15 14:34:39 3
2018/10/15 14:34:39 4
2018/10/15 14:34:39 3
2018/10/15 14:34:39 3
2018/10/15 14:34:39 4
2018/10/15 14:34:39 4
2018/10/15 14:34:39 4
2018/10/15 14:34:39 4
2018/10/15 14:34:39 4
2018/10/15 14:34:39 4
2018/10/15 14:34:39 4
2018/10/15 14:34:39 4
2018/10/15 14:34:39 4
2018/10/15 14:34:39 4
2018/10/15 14:34:39 3
2018/10/15 14:34:39 4
2018/10/15 14:34:39 4
2018/10/15 14:34:39 4
2018/10/15 14:34:39 3
2018/10/15 14:34:39 4
2018/10/15 14:34:39 4
2018/10/15 14:34:39 4
2018/10/15 14:34:39 4
2018/10/15 14:34:39 4
2018/10/15 14:34:39 4
2018/10/15 14:34:39 3
2018/10/15 14:34:39 4
2018/10/15 14:34:39 4
2018/10/15 14:34:39 4
2018/10/15 14:34:39 4
2018/10/15 14:34:39 4
2018/10/15 14:34:39 3
2018/10/15 14:34:39 4
2018/10/15 14:34:39 4
2018/10/15 14:34:39 4
2018/10/15 14:34:39 4
2018/10/15 14:34:39 4
2018/10/15 14:34:39 5
2018/10/15 14:34:39 4
2018/10/15 14:34:39 4
2018/10/15 14:34:39 4
2018/10/15 14:34:39 4
2018/10/15 14:34:39 3
2018/10/15 14:34:39 3
2018/10/15 14:34:39 4
2018/10/15 14:34:39 3
2018/10/15 14:34:39 4
2018/10/15 14:34:39 4
2018/10/15 14:34:39 4
2018/10/15 14:34:39 4
2018/10/15 14:34:39 4
2018/10/15 14:34:39 4
2018/10/15 14:34:39 4
2018/10/15 14:34:39 4
2018/10/15 14:34:39 4
2018/10/15 14:34:39 4
2018/10/15 14:34:39 4
2018/10/15 14:34:39 4
2018/10/15 14:34:39 3
2018/10/15 14:34:39 4
2018/10/15 14:34:39 4
2018/10/15 14:34:39 4
2018/10/15 14:34:39 3
2018/10/15 14:34:39 4
2018/10/15 14:34:39 4
2018/10/15 14:34:39 4
2018/10/15 14:34:39 3
2018/10/15 14:34:39 4
2018/10/15 14:34:39 4
2018/10/15 14:34:39 3
2018/10/15 14:34:39 4
2018/10/15 14:34:39 4
2018/10/15 14:34:39 3
2018/10/15 14:34:39 4
2018/10/15 14:34:39 3
2018/10/15 14:34:39 3
2018/10/15 14:34:39 3
2018/10/15 14:34:39 3
2018/10/15 14:34:39 3
2018/10/15 14:34:39 4
2018/10/15 14:34:39 4
2018/10/15 14:34:39 4
2018/10/15 14:34:39 4
2018/10/15 14:34:39 4
2018/10/15 14:34:39 4
2018/10/15 14:34:39 4
2018/10/15 14:34:39 4
2018/10/15 14:34:39 3
2018/10/15 14:34:39 4
2018/10/15 14:34:39 4
2018/10/15 14:34:39 4
2018/10/15 14:34:40 3
2018/10/15 14:34:40 4
2018/10/15 14:34:40 3
2018/10/15 14:34:40 4
2018/10/15 14:34:40 5
2018/10/15 14:34:40 4
2018/10/15 14:34:40 4
2018/10/15 14:34:40 4
2018/10/15 14:34:40 4
2018/10/15 14:34:40 4
2018/10/15 14:34:40 4
2018/10/15 14:34:40 4
2018/10/15 14:34:40 4
2018/10/15 14:34:40 4
2018/10/15 14:34:40 4
2018/10/15 14:34:40 4
2018/10/15 14:34:40 3
2018/10/15 14:34:40 4
2018/10/15 14:34:40 4
2018/10/15 14:34:40 4
2018/10/15 14:34:40 4
2018/10/15 14:34:40 4
2018/10/15 14:34:40 4
2018/10/15 14:34:40 4
2018/10/15 14:34:40 4
2018/10/15 14:34:40 4
2018/10/15 14:34:40 4
2018/10/15 14:34:40 4
2018/10/15 14:34:40 4
2018/10/15 14:34:40 4
2018/10/15 14:34:40 4
2018/10/15 14:34:40 4
2018/10/15 14:34:40 4
2018/10/15 14:34:40 4
2018/10/15 14:34:40 4
2018/10/15 14:34:40 4
2018/10/15 14:34:40 4
2018/10/15 14:34:40 3
2018/10/15 14:34:40 4
2018/10/15 14:34:40 4
2018/10/15 14:34:40 4
2018/10/15 14:34:40 4
2018/10/15 14:34:40 4
2018/10/15 14:34:40 4
2018/10/15 14:34:40 4
2018/10/15 14:34:40 4
2018/10/15 14:34:40 4
2018/10/15 14:34:40 4
2018/10/15 14:34:40 4
2018/10/15 14:34:40 4
2018/10/15 14:34:40 3
2018/10/15 14:34:40 4
2018/10/15 14:34:40 4
2018/10/15 14:34:40 4
2018/10/15 14:34:40 3
2018/10/15 14:34:40 3
2018/10/15 14:34:40 4
2018/10/15 14:34:40 4
2018/10/15 14:34:40 4
2018/10/15 14:34:40 4
2018/10/15 14:34:40 4
2018/10/15 14:34:40 4
2018/10/15 14:34:40 4
2018/10/15 14:34:40 3
2018/10/15 14:34:40 4
2018/10/15 14:34:40 4
2018/10/15 14:34:40 4
2018/10/15 14:34:40 3
2018/10/15 14:34:40 3
2018/10/15 14:34:40 4
2018/10/15 14:34:40 4
2018/10/15 14:34:40 4
2018/10/15 14:34:40 5
2018/10/15 14:34:40 4
2018/10/15 14:34:40 4
2018/10/15 14:34:40 4
2018/10/15 14:34:40 4
2018/10/15 14:34:40 4
2018/10/15 14:34:40 4
2018/10/15 14:34:40 4
2018/10/15 14:34:40 4
2018/10/15 14:34:40 4
2018/10/15 14:34:40 4
2018/10/15 14:34:40 3
2018/10/15 14:34:40 4
2018/10/15 14:34:40 4
2018/10/15 14:34:40 3
2018/10/15 14:34:40 4
2018/10/15 14:34:40 4
2018/10/15 14:34:40 4
2018/10/15 14:34:40 4
2018/10/15 14:34:40 4
2018/10/15 14:34:40 4
2018/10/15 14:34:40 3
2018/10/15 14:34:40 4
2018/10/15 14:34:40 4
2018/10/15 14:34:40 4
2018/10/15 14:34:40 4
2018/10/15 14:34:40 4
2018/10/15 14:34:40 3
2018/10/15 14:34:41 3
2018/10/15 14:34:41 4
2018/10/15 14:34:41 4
2018/10/15 14:34:41 4
2018/10/15 14:34:41 4
2018/10/15 14:34:41 4
2018/10/15 14:34:41 4
2018/10/15 14:34:41 4
2018/10/15 14:34:41 4
2018/10/15 14:34:41 4
2018/10/15 14:34:41 4
2018/10/15 14:34:41 5
2018/10/15 14:34:41 4
2018/10/15 14:34:41 5
2018/10/15 14:34:41 4
2018/10/15 14:34:41 4
2018/10/15 14:34:41 5
2018/10/15 14:34:41 4
2018/10/15 14:34:41 4
2018/10/15 14:34:41 3
2018/10/15 14:34:41 4
2018/10/15 14:34:41 4
2018/10/15 14:34:41 4
2018/10/15 14:34:41 3
2018/10/15 14:34:41 4
2018/10/15 14:34:41 4
2018/10/15 14:34:41 4
2018/10/15 14:34:41 4
2018/10/15 14:34:41 4
2018/10/15 14:34:41 4
2018/10/15 14:34:41 4
2018/10/15 14:34:41 4
2018/10/15 14:34:41 4
2018/10/15 14:34:41 4
2018/10/15 14:34:41 4
2018/10/15 14:34:41 4
2018/10/15 14:34:41 4
2018/10/15 14:34:41 4
2018/10/15 14:34:41 4
2018/10/15 14:34:41 4
2018/10/15 14:34:41 3
2018/10/15 14:34:41 4
2018/10/15 14:34:41 4
2018/10/15 14:34:41 4
2018/10/15 14:34:41 3
2018/10/15 14:34:41 4
2018/10/15 14:34:41 4
2018/10/15 14:34:41 4
2018/10/15 14:34:41 4
2018/10/15 14:34:41 4
2018/10/15 14:34:41 4
2018/10/15 14:34:41 4
2018/10/15 14:34:41 4
2018/10/15 14:34:41 4
2018/10/15 14:34:41 4
2018/10/15 14:34:41 4
2018/10/15 14:34:41 4
2018/10/15 14:34:41 4
2018/10/15 14:34:41 5
2018/10/15 14:34:41 4
2018/10/15 14:34:41 3
2018/10/15 14:34:41 4
2018/10/15 14:34:41 4
2018/10/15 14:34:41 4
2018/10/15 14:34:41 4
2018/10/15 14:34:41 4
2018/10/15 14:34:41 4
2018/10/15 14:34:41 4
2018/10/15 14:34:41 3
2018/10/15 14:34:41 4
2018/10/15 14:34:41 4
2018/10/15 14:34:41 3
2018/10/15 14:34:41 4
2018/10/15 14:34:41 4
2018/10/15 14:34:41 4
2018/10/15 14:34:41 3
2018/10/15 14:34:41 4
2018/10/15 14:34:41 4
2018/10/15 14:34:41 5
2018/10/15 14:34:41 3
2018/10/15 14:34:41 5
2018/10/15 14:34:41 4
2018/10/15 14:34:41 4
2018/10/15 14:34:41 4
2018/10/15 14:34:41 4
2018/10/15 14:34:41 4
2018/10/15 14:34:41 3
2018/10/15 14:34:41 3
2018/10/15 14:34:41 3
2018/10/15 14:34:41 4
2018/10/15 14:34:41 4
2018/10/15 14:34:41 4
2018/10/15 14:34:41 5
2018/10/15 14:34:41 4
2018/10/15 14:34:41 4
2018/10/15 14:34:41 4
2018/10/15 14:34:41 3
2018/10/15 14:34:41 3
2018/10/15 14:34:41 4
2018/10/15 14:34:41 4
2018/10/15 14:34:42 5
2018/10/15 14:34:42 4
2018/10/15 14:34:42 4
2018/10/15 14:34:42 4
2018/10/15 14:34:42 4
2018/10/15 14:34:42 4
2018/10/15 14:34:42 4
2018/10/15 14:34:42 4
2018/10/15 14:34:42 4
2018/10/15 14:34:42 4
2018/10/15 14:34:42 4
2018/10/15 14:34:42 4
2018/10/15 14:34:42 4
2018/10/15 14:34:42 4
2018/10/15 14:34:42 4
2018/10/15 14:34:42 5
2018/10/15 14:34:42 4
2018/10/15 14:34:42 4
2018/10/15 14:34:42 4
2018/10/15 14:34:42 4
2018/10/15 14:34:42 4
2018/10/15 14:34:42 4
2018/10/15 14:34:42 3
2018/10/15 14:34:42 3
2018/10/15 14:34:42 4
2018/10/15 14:34:42 4
2018/10/15 14:34:42 4
2018/10/15 14:34:42 5
2018/10/15 14:34:42 5
2018/10/15 14:34:42 4
2018/10/15 14:34:42 4
2018/10/15 14:34:42 4
2018/10/15 14:34:42 4
2018/10/15 14:34:42 4
2018/10/15 14:34:42 4
2018/10/15 14:34:42 4
2018/10/15 14:34:42 3
2018/10/15 14:34:42 4
2018/10/15 14:34:42 3
2018/10/15 14:34:42 4
2018/10/15 14:34:42 4
2018/10/15 14:34:42 4
2018/10/15 14:34:42 3
2018/10/15 14:34:42 4
2018/10/15 14:34:42 3
2018/10/15 14:34:42 4
2018/10/15 14:34:42 4
2018/10/15 14:34:42 4
2018/10/15 14:34:42 5
2018/10/15 14:34:42 4
2018/10/15 14:34:42 4
2018/10/15 14:34:42 4
2018/10/15 14:34:42 4
2018/10/15 14:34:42 4
2018/10/15 14:34:42 4
2018/10/15 14:34:42 3
2018/10/15 14:34:42 4
2018/10/15 14:34:42 4
2018/10/15 14:34:42 4
2018/10/15 14:34:42 4
2018/10/15 14:34:42 3
2018/10/15 14:34:42 4
2018/10/15 14:34:42 4
2018/10/15 14:34:42 4
2018/10/15 14:34:42 4
2018/10/15 14:34:42 4
2018/10/15 14:34:42 4
2018/10/15 14:34:42 4
2018/10/15 14:34:42 4
2018/10/15 14:34:42 3
2018/10/15 14:34:42 4
2018/10/15 14:34:42 4
2018/10/15 14:34:42 4
2018/10/15 14:34:42 4
2018/10/15 14:34:42 4
2018/10/15 14:34:42 4
2018/10/15 14:34:42 4
2018/10/15 14:34:42 4
2018/10/15 14:34:42 3
2018/10/15 14:34:42 4
2018/10/15 14:34:42 4
2018/10/15 14:34:42 4
2018/10/15 14:34:42 4
2018/10/15 14:34:42 4
2018/10/15 14:34:42 3
2018/10/15 14:34:42 4
2018/10/15 14:34:42 4
2018/10/15 14:34:42 4
2018/10/15 14:34:42 4
2018/10/15 14:34:42 4
2018/10/15 14:34:42 4
2018/10/15 14:34:42 4
2018/10/15 14:34:42 3
2018/10/15 14:34:42 4
2018/10/15 14:34:42 4
2018/10/15 14:34:42 3
2018/10/15 14:34:42 4
2018/10/15 14:34:42 4
2018/10/15 14:34:42 4
2018/10/15 14:34:42 4
2018/10/15 14:34:43 4
2018/10/15 14:34:43 3
2018/10/15 14:34:43 5
2018/10/15 14:34:43 4
2018/10/15 14:34:43 4
2018/10/15 14:34:43 4
2018/10/15 14:34:43 4
2018/10/15 14:34:43 4
2018/10/15 14:34:43 4
2018/10/15 14:34:43 4
2018/10/15 14:34:43 3
2018/10/15 14:34:43 4
2018/10/15 14:34:43 3
2018/10/15 14:34:43 4
2018/10/15 14:34:43 4
2018/10/15 14:34:43 4
2018/10/15 14:34:43 4
2018/10/15 14:34:43 3
2018/10/15 14:34:43 4
2018/10/15 14:34:43 4
2018/10/15 14:34:43 4
2018/10/15 14:34:43 4
2018/10/15 14:34:43 4
2018/10/15 14:34:43 4
2018/10/15 14:34:43 4
2018/10/15 14:34:43 4
2018/10/15 14:34:43 4
2018/10/15 14:34:43 4
2018/10/15 14:34:43 4
2018/10/15 14:34:43 4
2018/10/15 14:34:43 4
2018/10/15 14:34:43 4
2018/10/15 14:34:43 3
2018/10/15 14:34:43 4
2018/10/15 14:34:43 4
2018/10/15 14:34:43 3
2018/10/15 14:34:43 4
2018/10/15 14:34:43 4
2018/10/15 14:34:43 4
2018/10/15 14:34:43 4
2018/10/15 14:34:43 3
2018/10/15 14:34:43 4
2018/10/15 14:34:43 4
2018/10/15 14:34:43 3
2018/10/15 14:34:43 4
2018/10/15 14:34:43 4
2018/10/15 14:34:43 4
2018/10/15 14:34:43 4
2018/10/15 14:34:43 5
2018/10/15 14:34:43 5
2018/10/15 14:34:43 4
2018/10/15 14:34:43 4
2018/10/15 14:34:43 4
2018/10/15 14:34:43 4
2018/10/15 14:34:43 4
2018/10/15 14:34:43 3
2018/10/15 14:34:43 3
2018/10/15 14:34:43 4
2018/10/15 14:34:43 6
2018/10/15 14:34:43 4
2018/10/15 14:34:43 4
2018/10/15 14:34:43 4
2018/10/15 14:34:43 6
2018/10/15 14:34:43 4
2018/10/15 14:34:43 4
2018/10/15 14:34:43 3
2018/10/15 14:34:43 3
2018/10/15 14:34:43 3
2018/10/15 14:34:43 4
2018/10/15 14:34:43 4
2018/10/15 14:34:43 3
2018/10/15 14:34:43 4
2018/10/15 14:34:43 3
2018/10/15 14:34:43 4
2018/10/15 14:34:43 3
2018/10/15 14:34:43 5
2018/10/15 14:34:43 4
2018/10/15 14:34:43 4
2018/10/15 14:34:43 4
2018/10/15 14:34:43 4
2018/10/15 14:34:43 4
2018/10/15 14:34:43 4
2018/10/15 14:34:43 4
2018/10/15 14:34:43 3
2018/10/15 14:34:43 4
2018/10/15 14:34:43 4
2018/10/15 14:34:43 4
2018/10/15 14:34:43 4
2018/10/15 14:34:43 3
2018/10/15 14:34:43 3
2018/10/15 14:34:43 3
2018/10/15 14:34:43 4
2018/10/15 14:34:43 4
2018/10/15 14:34:43 4
2018/10/15 14:34:43 4
2018/10/15 14:34:43 3
2018/10/15 14:34:43 4
2018/10/15 14:34:43 3
2018/10/15 14:34:43 4
2018/10/15 14:34:44 4
2018/10/15 14:34:44 4
2018/10/15 14:34:44 4
2018/10/15 14:34:44 4
2018/10/15 14:34:44 4
2018/10/15 14:34:44 4
2018/10/15 14:34:44 5
2018/10/15 14:34:44 4
2018/10/15 14:34:44 4
2018/10/15 14:34:44 4
2018/10/15 14:34:44 4
2018/10/15 14:34:44 4
2018/10/15 14:34:44 4
2018/10/15 14:34:44 3
2018/10/15 14:34:44 3
2018/10/15 14:34:44 5
2018/10/15 14:34:44 4
2018/10/15 14:34:44 4
2018/10/15 14:34:44 4
2018/10/15 14:34:44 4
2018/10/15 14:34:44 4
2018/10/15 14:34:44 4
2018/10/15 14:34:44 4
2018/10/15 14:34:44 4
2018/10/15 14:34:44 4
2018/10/15 14:34:44 4
2018/10/15 14:34:44 4
2018/10/15 14:34:44 4
2018/10/15 14:34:44 4
2018/10/15 14:34:44 4
2018/10/15 14:34:44 4
2018/10/15 14:34:44 4
2018/10/15 14:34:44 3
2018/10/15 14:34:44 3
2018/10/15 14:34:44 4
2018/10/15 14:34:44 4
2018/10/15 14:34:44 3
2018/10/15 14:34:44 4
2018/10/15 14:34:44 4
2018/10/15 14:34:44 3
2018/10/15 14:34:44 4
2018/10/15 14:34:44 4
2018/10/15 14:34:44 4
2018/10/15 14:34:44 4
2018/10/15 14:34:44 3
2018/10/15 14:34:44 4
2018/10/15 14:34:44 5
2018/10/15 14:34:44 4
2018/10/15 14:34:44 4
2018/10/15 14:34:44 4
2018/10/15 14:34:44 4
2018/10/15 14:34:44 4
2018/10/15 14:34:44 3
2018/10/15 14:34:44 4
2018/10/15 14:34:44 4
2018/10/15 14:34:44 4
2018/10/15 14:34:44 4
2018/10/15 14:34:44 3
2018/10/15 14:34:44 4
2018/10/15 14:34:44 4
2018/10/15 14:34:44 3
2018/10/15 14:34:44 4
2018/10/15 14:34:44 3
2018/10/15 14:34:44 3
2018/10/15 14:34:44 4
2018/10/15 14:34:44 4
2018/10/15 14:34:44 4
2018/10/15 14:34:44 3
2018/10/15 14:34:44 3
2018/10/15 14:34:44 3
2018/10/15 14:34:44 4
2018/10/15 14:34:44 4
2018/10/15 14:34:44 4
2018/10/15 14:34:44 4
2018/10/15 14:34:44 4
2018/10/15 14:34:44 4
2018/10/15 14:34:44 4
2018/10/15 14:34:44 4
2018/10/15 14:34:44 4
2018/10/15 14:34:44 4
2018/10/15 14:34:44 3
2018/10/15 14:34:44 4
2018/10/15 14:34:44 3
2018/10/15 14:34:44 4
2018/10/15 14:34:44 4
2018/10/15 14:34:44 4
2018/10/15 14:34:44 4
2018/10/15 14:34:44 4
2018/10/15 14:34:44 4
2018/10/15 14:34:44 3
2018/10/15 14:34:44 4
2018/10/15 14:34:44 4
2018/10/15 14:34:44 4
2018/10/15 14:34:44 4
2018/10/15 14:34:44 4
2018/10/15 14:34:44 3
2018/10/15 14:34:44 4
2018/10/15 14:34:44 3
2018/10/15 14:34:44 4
2018/10/15 14:34:44 3
2018/10/15 14:34:44 4
2018/10/15 14:34:45 3
2018/10/15 14:34:45 3
2018/10/15 14:34:45 4
2018/10/15 14:34:45 4
2018/10/15 14:34:45 4
2018/10/15 14:34:45 4
2018/10/15 14:34:45 3
2018/10/15 14:34:45 3
2018/10/15 14:34:45 4
2018/10/15 14:34:45 3
2018/10/15 14:34:45 3
2018/10/15 14:34:45 4
2018/10/15 14:34:45 4
2018/10/15 14:34:45 4
2018/10/15 14:34:45 4
2018/10/15 14:34:45 4
2018/10/15 14:34:45 5
2018/10/15 14:34:45 4
2018/10/15 14:34:45 4
2018/10/15 14:34:45 4
2018/10/15 14:34:45 4
2018/10/15 14:34:45 3
2018/10/15 14:34:45 4
2018/10/15 14:34:45 3
2018/10/15 14:34:45 4
2018/10/15 14:34:45 4
2018/10/15 14:34:45 4
2018/10/15 14:34:45 4
2018/10/15 14:34:45 3
2018/10/15 14:34:45 4
2018/10/15 14:34:45 4
2018/10/15 14:34:45 4
2018/10/15 14:34:45 3
2018/10/15 14:34:45 4
2018/10/15 14:34:45 4
2018/10/15 14:34:45 4
2018/10/15 14:34:45 4
2018/10/15 14:34:45 4
2018/10/15 14:34:45 4
2018/10/15 14:34:45 4
2018/10/15 14:34:45 4
2018/10/15 14:34:45 4
2018/10/15 14:34:45 4
2018/10/15 14:34:45 3
2018/10/15 14:34:45 4
2018/10/15 14:34:45 4
2018/10/15 14:34:45 5
2018/10/15 14:34:45 4
2018/10/15 14:34:45 4
2018/10/15 14:34:45 4
2018/10/15 14:34:45 5
2018/10/15 14:34:45 4
2018/10/15 14:34:45 4
2018/10/15 14:34:45 4
2018/10/15 14:34:45 4
2018/10/15 14:34:45 4
2018/10/15 14:34:45 4
2018/10/15 14:34:45 4
2018/10/15 14:34:45 4
2018/10/15 14:34:45 3
2018/10/15 14:34:45 4
2018/10/15 14:34:45 4
2018/10/15 14:34:45 4
2018/10/15 14:34:45 4
2018/10/15 14:34:45 5
2018/10/15 14:34:45 4
2018/10/15 14:34:45 4
2018/10/15 14:34:45 4
2018/10/15 14:34:45 4
2018/10/15 14:34:45 4
2018/10/15 14:34:45 3
2018/10/15 14:34:45 4
2018/10/15 14:34:45 3
2018/10/15 14:34:45 4
2018/10/15 14:34:45 3
2018/10/15 14:34:45 3
2018/10/15 14:34:45 4
2018/10/15 14:34:45 4
2018/10/15 14:34:45 4
2018/10/15 14:34:45 4
2018/10/15 14:34:45 3
2018/10/15 14:34:45 4
2018/10/15 14:34:45 4
2018/10/15 14:34:45 4
2018/10/15 14:34:45 4
2018/10/15 14:34:45 4
2018/10/15 14:34:45 3
2018/10/15 14:34:45 4
2018/10/15 14:34:45 3
2018/10/15 14:34:45 4
2018/10/15 14:34:45 5
2018/10/15 14:34:45 4
2018/10/15 14:34:45 4
2018/10/15 14:34:45 4
2018/10/15 14:34:45 4
2018/10/15 14:34:45 4
2018/10/15 14:34:45 4
2018/10/15 14:34:45 4
2018/10/15 14:34:45 3
2018/10/15 14:34:45 3
2018/10/15 14:34:46 3
2018/10/15 14:34:46 4
2018/10/15 14:34:46 4
2018/10/15 14:34:46 3
2018/10/15 14:34:46 4
2018/10/15 14:34:46 4
2018/10/15 14:34:46 4
2018/10/15 14:34:46 4
2018/10/15 14:34:46 4
2018/10/15 14:34:46 4
2018/10/15 14:34:46 4
2018/10/15 14:34:46 3
2018/10/15 14:34:46 4
2018/10/15 14:34:46 4
2018/10/15 14:34:46 4
2018/10/15 14:34:46 4
2018/10/15 14:34:46 4
2018/10/15 14:34:46 4
2018/10/15 14:34:46 4
2018/10/15 14:34:46 4
2018/10/15 14:34:46 4
2018/10/15 14:34:46 4
2018/10/15 14:34:46 4
2018/10/15 14:34:46 5
2018/10/15 14:34:46 4
2018/10/15 14:34:46 4
2018/10/15 14:34:46 4
2018/10/15 14:34:46 4
2018/10/15 14:34:46 3
2018/10/15 14:34:46 4
2018/10/15 14:34:46 3
2018/10/15 14:34:46 4
2018/10/15 14:34:46 4
2018/10/15 14:34:46 4
2018/10/15 14:34:46 3
2018/10/15 14:34:46 3
2018/10/15 14:34:46 4
2018/10/15 14:34:46 4
2018/10/15 14:34:46 3
2018/10/15 14:34:46 4
2018/10/15 14:34:46 3
2018/10/15 14:34:46 4
2018/10/15 14:34:46 4
2018/10/15 14:34:46 4
2018/10/15 14:34:46 4
2018/10/15 14:34:46 3
2018/10/15 14:34:46 4
2018/10/15 14:34:46 4
2018/10/15 14:34:46 4
2018/10/15 14:34:46 4
2018/10/15 14:34:46 4
2018/10/15 14:34:46 4
2018/10/15 14:34:46 4
2018/10/15 14:34:46 4
2018/10/15 14:34:46 4
2018/10/15 14:34:46 4
2018/10/15 14:34:46 4
2018/10/15 14:34:46 3
2018/10/15 14:34:46 5
2018/10/15 14:34:46 4
2018/10/15 14:34:46 4
2018/10/15 14:34:46 4
2018/10/15 14:34:46 4
2018/10/15 14:34:46 4
2018/10/15 14:34:46 4
2018/10/15 14:34:46 4
2018/10/15 14:34:46 4
2018/10/15 14:34:46 3
2018/10/15 14:34:46 3
2018/10/15 14:34:46 4
2018/10/15 14:34:46 3
2018/10/15 14:34:46 4
2018/10/15 14:34:46 3
2018/10/15 14:34:46 4
2018/10/15 14:34:46 4
2018/10/15 14:34:46 4
2018/10/15 14:34:46 4
2018/10/15 14:34:46 4
2018/10/15 14:34:46 4
2018/10/15 14:34:46 4
2018/10/15 14:34:46 4
2018/10/15 14:34:46 3
2018/10/15 14:34:46 4
2018/10/15 14:34:46 4
2018/10/15 14:34:46 3
2018/10/15 14:34:46 4
2018/10/15 14:34:46 4
2018/10/15 14:34:46 4
2018/10/15 14:34:46 4
2018/10/15 14:34:46 4
2018/10/15 14:34:46 4
2018/10/15 14:34:46 4
2018/10/15 14:34:46 4
2018/10/15 14:34:46 4
2018/10/15 14:34:46 4
2018/10/15 14:34:46 5
2018/10/15 14:34:46 4
2018/10/15 14:34:46 3
2018/10/15 14:34:46 4
2018/10/15 14:34:47 4
2018/10/15 14:34:47 4
2018/10/15 14:34:47 4
2018/10/15 14:34:47 3
2018/10/15 14:34:47 5
2018/10/15 14:34:47 4
2018/10/15 14:34:47 3
2018/10/15 14:34:47 7
2018/10/15 14:34:47 4
2018/10/15 14:34:47 4
2018/10/15 14:34:47 6
2018/10/15 14:34:47 4
2018/10/15 14:34:47 4
2018/10/15 14:34:47 4
2018/10/15 14:34:47 4
2018/10/15 14:34:47 4
2018/10/15 14:34:47 4
2018/10/15 14:34:47 5
2018/10/15 14:34:47 4
2018/10/15 14:34:47 3
2018/10/15 14:34:47 3
2018/10/15 14:34:47 4
2018/10/15 14:34:47 4
2018/10/15 14:34:47 4
2018/10/15 14:34:47 5
2018/10/15 14:34:47 4
2018/10/15 14:34:47 4
2018/10/15 14:34:47 4
2018/10/15 14:34:47 4
2018/10/15 14:34:47 4
2018/10/15 14:34:47 4
2018/10/15 14:34:47 4
2018/10/15 14:34:47 4
2018/10/15 14:34:47 4
2018/10/15 14:34:47 4
2018/10/15 14:34:47 4
2018/10/15 14:34:47 3
2018/10/15 14:34:47 4
2018/10/15 14:34:47 4
2018/10/15 14:34:47 3
2018/10/15 14:34:47 3
2018/10/15 14:34:47 4
2018/10/15 14:34:47 4
2018/10/15 14:34:47 4
2018/10/15 14:34:47 3
2018/10/15 14:34:47 3
2018/10/15 14:34:47 4
2018/10/15 14:34:47 4
2018/10/15 14:34:47 4
2018/10/15 14:34:47 4
2018/10/15 14:34:47 4
2018/10/15 14:34:47 4
2018/10/15 14:34:47 4
2018/10/15 14:34:47 3
2018/10/15 14:34:47 4
2018/10/15 14:34:47 3
2018/10/15 14:34:47 3
2018/10/15 14:34:47 4
2018/10/15 14:34:47 4
2018/10/15 14:34:47 4
2018/10/15 14:34:47 3
2018/10/15 14:34:47 4
2018/10/15 14:34:47 4
2018/10/15 14:34:47 4
2018/10/15 14:34:47 4
2018/10/15 14:34:47 4
2018/10/15 14:34:47 4
2018/10/15 14:34:47 4
2018/10/15 14:34:47 4
2018/10/15 14:34:47 3
2018/10/15 14:34:47 4
2018/10/15 14:34:47 4
2018/10/15 14:34:47 4
2018/10/15 14:34:47 3
2018/10/15 14:34:47 3
2018/10/15 14:34:47 3
2018/10/15 14:34:47 3
2018/10/15 14:34:47 4
2018/10/15 14:34:47 4
2018/10/15 14:34:47 3
2018/10/15 14:34:47 4
2018/10/15 14:34:47 4
2018/10/15 14:34:47 4
2018/10/15 14:34:47 4
2018/10/15 14:34:47 3
2018/10/15 14:34:47 4
2018/10/15 14:34:47 4
2018/10/15 14:34:47 3
2018/10/15 14:34:47 3
2018/10/15 14:34:47 4
2018/10/15 14:34:47 4
2018/10/15 14:34:47 4
2018/10/15 14:34:47 4
2018/10/15 14:34:47 4
2018/10/15 14:34:47 4
2018/10/15 14:34:47 4
2018/10/15 14:34:47 3
2018/10/15 14:34:47 4
2018/10/15 14:34:47 4
2018/10/15 14:34:47 4
2018/10/15 14:34:48 4
2018/10/15 14:34:48 4
2018/10/15 14:34:48 3
2018/10/15 14:34:48 4
2018/10/15 14:34:48 4
2018/10/15 14:34:48 3
2018/10/15 14:34:48 4
2018/10/15 14:34:48 3
2018/10/15 14:34:48 4
2018/10/15 14:34:48 5
2018/10/15 14:34:48 4
2018/10/15 14:34:48 4
2018/10/15 14:34:48 4
2018/10/15 14:34:48 4
2018/10/15 14:34:48 4
2018/10/15 14:34:48 4
2018/10/15 14:34:48 4
2018/10/15 14:34:48 4
2018/10/15 14:34:48 4
2018/10/15 14:34:48 3
2018/10/15 14:34:48 3
2018/10/15 14:34:48 3
2018/10/15 14:34:48 3
2018/10/15 14:34:48 3
2018/10/15 14:34:48 4
2018/10/15 14:34:48 4
2018/10/15 14:34:48 4
2018/10/15 14:34:48 4
2018/10/15 14:34:48 4
2018/10/15 14:34:48 4
2018/10/15 14:34:48 4
2018/10/15 14:34:48 4
2018/10/15 14:34:48 5
2018/10/15 14:34:48 5
2018/10/15 14:34:48 4
2018/10/15 14:34:48 4
2018/10/15 14:34:48 4
2018/10/15 14:34:48 4
2018/10/15 14:34:48 3
2018/10/15 14:34:48 3
2018/10/15 14:34:48 3
2018/10/15 14:34:48 3
2018/10/15 14:34:48 4
2018/10/15 14:34:48 3
2018/10/15 14:34:48 4
2018/10/15 14:34:48 4
2018/10/15 14:34:48 3
2018/10/15 14:34:48 5
2018/10/15 14:34:48 4
2018/10/15 14:34:48 4
2018/10/15 14:34:48 4
2018/10/15 14:34:48 4
2018/10/15 14:34:48 4
2018/10/15 14:34:48 4
2018/10/15 14:34:48 4
2018/10/15 14:34:48 4
2018/10/15 14:34:48 4
2018/10/15 14:34:48 3
2018/10/15 14:34:48 4
2018/10/15 14:34:48 4
2018/10/15 14:34:48 4
2018/10/15 14:34:48 4
2018/10/15 14:34:48 3
2018/10/15 14:34:48 6
2018/10/15 14:34:48 3
2018/10/15 14:34:48 4
2018/10/15 14:34:48 4
2018/10/15 14:34:48 4
2018/10/15 14:34:48 4
2018/10/15 14:34:48 4
2018/10/15 14:34:48 4
2018/10/15 14:34:48 4
2018/10/15 14:34:48 4
2018/10/15 14:34:48 4
2018/10/15 14:34:48 4
2018/10/15 14:34:48 4
2018/10/15 14:34:48 3
2018/10/15 14:34:48 4
2018/10/15 14:34:48 4
2018/10/15 14:34:48 4
2018/10/15 14:34:48 4
2018/10/15 14:34:48 4
2018/10/15 14:34:48 3
2018/10/15 14:34:48 3
2018/10/15 14:34:48 4
2018/10/15 14:34:48 4
2018/10/15 14:34:48 4
2018/10/15 14:34:48 4
2018/10/15 14:34:48 4
2018/10/15 14:34:48 3
2018/10/15 14:34:48 4
2018/10/15 14:34:48 4
2018/10/15 14:34:48 4
2018/10/15 14:34:48 4
2018/10/15 14:34:48 4
2018/10/15 14:34:48 4
2018/10/15 14:34:48 4
2018/10/15 14:34:48 4
2018/10/15 14:34:48 4
2018/10/15 14:34:48 4
2018/10/15 14:34:49 3
2018/10/15 14:34:49 4
2018/10/15 14:34:49 4
2018/10/15 14:34:49 4
2018/10/15 14:34:49 4
2018/10/15 14:34:49 4
2018/10/15 14:34:49 4
2018/10/15 14:34:49 3
2018/10/15 14:34:49 4
2018/10/15 14:34:49 4
2018/10/15 14:34:49 4
2018/10/15 14:34:49 3
2018/10/15 14:34:49 4
2018/10/15 14:34:49 4
2018/10/15 14:34:49 4
2018/10/15 14:34:49 3
2018/10/15 14:34:49 4
2018/10/15 14:34:49 4
2018/10/15 14:34:49 4
2018/10/15 14:34:49 4
2018/10/15 14:34:49 4
2018/10/15 14:34:49 4
2018/10/15 14:34:49 5
2018/10/15 14:34:49 3
2018/10/15 14:34:49 4
2018/10/15 14:34:49 4
2018/10/15 14:34:49 5
2018/10/15 14:34:49 4
2018/10/15 14:34:49 4
2018/10/15 14:34:49 4
2018/10/15 14:34:49 4
2018/10/15 14:34:49 4
2018/10/15 14:34:49 3
2018/10/15 14:34:49 4
2018/10/15 14:34:49 4
2018/10/15 14:34:49 4
2018/10/15 14:34:49 4
2018/10/15 14:34:49 4
2018/10/15 14:34:49 4
2018/10/15 14:34:49 4
2018/10/15 14:34:49 3
2018/10/15 14:34:49 3
2018/10/15 14:34:49 5
2018/10/15 14:34:49 4
2018/10/15 14:34:49 3
2018/10/15 14:34:49 4
2018/10/15 14:34:49 4
2018/10/15 14:34:49 4
2018/10/15 14:34:49 4
2018/10/15 14:34:49 4
2018/10/15 14:34:49 4
2018/10/15 14:34:49 3
2018/10/15 14:34:49 4
2018/10/15 14:34:49 4
2018/10/15 14:34:49 4
2018/10/15 14:34:49 4
2018/10/15 14:34:49 4
2018/10/15 14:34:49 4
2018/10/15 14:34:49 4
2018/10/15 14:34:49 4
2018/10/15 14:34:49 4
2018/10/15 14:34:49 4
2018/10/15 14:34:49 3
2018/10/15 14:34:49 11
2018/10/15 14:34:49 3
2018/10/15 14:34:49 4
2018/10/15 14:34:49 4
2018/10/15 14:34:49 4
2018/10/15 14:34:49 4
2018/10/15 14:34:49 3
2018/10/15 14:34:49 4
2018/10/15 14:34:49 4
2018/10/15 14:34:49 3
2018/10/15 14:34:49 4
2018/10/15 14:34:49 4
2018/10/15 14:34:49 4
2018/10/15 14:34:49 4
2018/10/15 14:34:49 4
2018/10/15 14:34:49 4
2018/10/15 14:34:49 5
2018/10/15 14:34:49 5
2018/10/15 14:34:49 4
2018/10/15 14:34:49 4
2018/10/15 14:34:49 4
2018/10/15 14:34:49 4
2018/10/15 14:34:49 4
2018/10/15 14:34:49 4
2018/10/15 14:34:49 4
2018/10/15 14:34:49 4
2018/10/15 14:34:49 4
2018/10/15 14:34:49 4
2018/10/15 14:34:49 3
2018/10/15 14:34:49 3
2018/10/15 14:34:49 4
2018/10/15 14:34:49 4
2018/10/15 14:34:49 4
2018/10/15 14:34:49 4
2018/10/15 14:34:49 3
2018/10/15 14:34:49 4
2018/10/15 14:34:49 4
2018/10/15 14:34:50 5
2018/10/15 14:34:50 4
2018/10/15 14:34:50 4
2018/10/15 14:34:50 4
2018/10/15 14:34:50 4
2018/10/15 14:34:50 4
2018/10/15 14:34:50 4
2018/10/15 14:34:50 4
2018/10/15 14:34:50 4
2018/10/15 14:34:50 4
2018/10/15 14:34:50 3
2018/10/15 14:34:50 5
2018/10/15 14:34:50 3
2018/10/15 14:34:50 4
2018/10/15 14:34:50 4
2018/10/15 14:34:50 4
2018/10/15 14:34:50 4
2018/10/15 14:34:50 4
2018/10/15 14:34:50 4
2018/10/15 14:34:50 4
2018/10/15 14:34:50 4
2018/10/15 14:34:50 4
2018/10/15 14:34:50 4
2018/10/15 14:34:50 5
2018/10/15 14:34:50 4
2018/10/15 14:34:50 4
2018/10/15 14:34:50 4
2018/10/15 14:34:50 4
2018/10/15 14:34:50 4
2018/10/15 14:34:50 5
2018/10/15 14:34:50 4
2018/10/15 14:34:50 3
2018/10/15 14:34:50 4
2018/10/15 14:34:50 4
2018/10/15 14:34:50 4
2018/10/15 14:34:50 4
2018/10/15 14:34:50 5
2018/10/15 14:34:50 3
2018/10/15 14:34:50 4
2018/10/15 14:34:50 4
2018/10/15 14:34:50 4
2018/10/15 14:34:50 4
2018/10/15 14:34:50 4
2018/10/15 14:34:50 4
2018/10/15 14:34:50 3
2018/10/15 14:34:50 4
2018/10/15 14:34:50 4
2018/10/15 14:34:50 3
2018/10/15 14:34:50 4
2018/10/15 14:34:50 3
2018/10/15 14:34:50 4
2018/10/15 14:34:50 4
2018/10/15 14:34:50 4
2018/10/15 14:34:50 3
2018/10/15 14:34:50 3
2018/10/15 14:34:50 4
2018/10/15 14:34:50 4
2018/10/15 14:34:50 4
2018/10/15 14:34:50 4
2018/10/15 14:34:50 4
2018/10/15 14:34:50 5
2018/10/15 14:34:50 4
2018/10/15 14:34:50 5
2018/10/15 14:34:50 4
2018/10/15 14:34:50 4
2018/10/15 14:34:50 4
2018/10/15 14:34:50 3
2018/10/15 14:34:50 4
2018/10/15 14:34:50 3
2018/10/15 14:34:50 3
2018/10/15 14:34:50 4
2018/10/15 14:34:50 4
2018/10/15 14:34:50 4
2018/10/15 14:34:50 4
2018/10/15 14:34:50 4
2018/10/15 14:34:50 4
2018/10/15 14:34:50 4
2018/10/15 14:34:50 4
2018/10/15 14:34:50 4
2018/10/15 14:34:50 3
2018/10/15 14:34:50 4
2018/10/15 14:34:50 4
2018/10/15 14:34:50 4
2018/10/15 14:34:50 3
2018/10/15 14:34:50 4
2018/10/15 14:34:50 4
2018/10/15 14:34:50 4
2018/10/15 14:34:50 4
2018/10/15 14:34:50 4
2018/10/15 14:34:50 4
2018/10/15 14:34:50 4
2018/10/15 14:34:50 3
2018/10/15 14:34:50 4
2018/10/15 14:34:50 4
2018/10/15 14:34:50 4
2018/10/15 14:34:50 4
2018/10/15 14:34:50 4
2018/10/15 14:34:50 4
2018/10/15 14:34:50 4
2018/10/15 14:34:50 4
2018/10/15 14:34:51 4
2018/10/15 14:34:51 4
2018/10/15 14:34:51 4
2018/10/15 14:34:51 4
2018/10/15 14:34:51 4
2018/10/15 14:34:51 4
2018/10/15 14:34:51 5
2018/10/15 14:34:51 4
2018/10/15 14:34:51 3
2018/10/15 14:34:51 4
2018/10/15 14:34:51 5
2018/10/15 14:34:51 4
2018/10/15 14:34:51 4
2018/10/15 14:34:51 4
2018/10/15 14:34:51 4
2018/10/15 14:34:51 4
2018/10/15 14:34:51 4
2018/10/15 14:34:51 3
2018/10/15 14:34:51 3
2018/10/15 14:34:51 3
2018/10/15 14:34:51 3
2018/10/15 14:34:51 3
2018/10/15 14:34:51 4
2018/10/15 14:34:51 4
2018/10/15 14:34:51 3
2018/10/15 14:34:51 3
2018/10/15 14:34:51 4
2018/10/15 14:34:51 4
2018/10/15 14:34:51 4
2018/10/15 14:34:51 4
2018/10/15 14:34:51 4
2018/10/15 14:34:51 3
2018/10/15 14:34:51 6
2018/10/15 14:34:51 5
2018/10/15 14:34:51 6
2018/10/15 14:34:51 4
2018/10/15 14:34:51 4
2018/10/15 14:34:51 3
2018/10/15 14:34:51 3
2018/10/15 14:34:51 4
2018/10/15 14:34:51 3
2018/10/15 14:34:51 3
2018/10/15 14:34:51 4
2018/10/15 14:34:51 4
2018/10/15 14:34:51 4
2018/10/15 14:34:51 4
2018/10/15 14:34:51 4
2018/10/15 14:34:51 4
2018/10/15 14:34:51 4
2018/10/15 14:34:51 4
2018/10/15 14:34:51 4
2018/10/15 14:34:51 3
2018/10/15 14:34:51 3
2018/10/15 14:34:51 4
2018/10/15 14:34:51 3
2018/10/15 14:34:51 4
2018/10/15 14:34:51 4
2018/10/15 14:34:51 5
2018/10/15 14:34:51 4
2018/10/15 14:34:51 4
2018/10/15 14:34:51 4
2018/10/15 14:34:51 4
2018/10/15 14:34:51 4
2018/10/15 14:34:51 4
2018/10/15 14:34:51 4
2018/10/15 14:34:51 4
2018/10/15 14:34:51 4
2018/10/15 14:34:51 4
2018/10/15 14:34:51 3
2018/10/15 14:34:51 4
2018/10/15 14:34:51 3
2018/10/15 14:34:51 3
2018/10/15 14:34:51 4
2018/10/15 14:34:51 4
2018/10/15 14:34:51 4
2018/10/15 14:34:51 4
2018/10/15 14:34:51 4
2018/10/15 14:34:51 3
2018/10/15 14:34:51 3
2018/10/15 14:34:51 4
2018/10/15 14:34:51 4
2018/10/15 14:34:51 4
2018/10/15 14:34:51 4
2018/10/15 14:34:51 4
2018/10/15 14:34:51 4
2018/10/15 14:34:51 4
2018/10/15 14:34:51 4
2018/10/15 14:34:51 3
2018/10/15 14:34:51 4
2018/10/15 14:34:51 4
2018/10/15 14:34:51 4
2018/10/15 14:34:51 4
2018/10/15 14:34:51 4
2018/10/15 14:34:51 4
2018/10/15 14:34:51 4
2018/10/15 14:34:51 4
2018/10/15 14:34:51 4
2018/10/15 14:34:51 4
2018/10/15 14:34:51 3
2018/10/15 14:34:51 4
2018/10/15 14:34:52 4
2018/10/15 14:34:52 4
2018/10/15 14:34:52 4
2018/10/15 14:34:52 4
2018/10/15 14:34:52 5
2018/10/15 14:34:52 4
2018/10/15 14:34:52 4
2018/10/15 14:34:52 4
2018/10/15 14:34:52 4
2018/10/15 14:34:52 4
2018/10/15 14:34:52 4
2018/10/15 14:34:52 4
2018/10/15 14:34:52 4
2018/10/15 14:34:52 3
2018/10/15 14:34:52 3
2018/10/15 14:34:52 3
2018/10/15 14:34:52 4
2018/10/15 14:34:52 4
2018/10/15 14:34:52 4
2018/10/15 14:34:52 3
2018/10/15 14:34:52 3
2018/10/15 14:34:52 3
2018/10/15 14:34:52 4
2018/10/15 14:34:52 4
2018/10/15 14:34:52 4
2018/10/15 14:34:52 3
2018/10/15 14:34:52 4
2018/10/15 14:34:52 4
2018/10/15 14:34:52 4
2018/10/15 14:34:52 4
2018/10/15 14:34:52 3
2018/10/15 14:34:52 4
2018/10/15 14:34:52 3
2018/10/15 14:34:52 3
2018/10/15 14:34:52 4
2018/10/15 14:34:52 3
2018/10/15 14:34:52 4
2018/10/15 14:34:52 3
2018/10/15 14:34:52 4
2018/10/15 14:34:52 4
2018/10/15 14:34:52 4
2018/10/15 14:34:52 4
2018/10/15 14:34:52 3
2018/10/15 14:34:52 3
2018/10/15 14:34:52 5
2018/10/15 14:34:52 5
2018/10/15 14:34:52 4
2018/10/15 14:34:52 4
2018/10/15 14:34:52 4
2018/10/15 14:34:52 4
2018/10/15 14:34:52 4
2018/10/15 14:34:52 4
2018/10/15 14:34:52 4
2018/10/15 14:34:52 4
2018/10/15 14:34:52 4
2018/10/15 14:34:52 4
2018/10/15 14:34:52 4
2018/10/15 14:34:52 4
2018/10/15 14:34:52 4
2018/10/15 14:34:52 4
2018/10/15 14:34:52 4
2018/10/15 14:34:52 4
2018/10/15 14:34:52 4
2018/10/15 14:34:52 4
2018/10/15 14:34:52 4
2018/10/15 14:34:52 4
2018/10/15 14:34:52 3
2018/10/15 14:34:52 4
2018/10/15 14:34:52 3
2018/10/15 14:34:52 4
2018/10/15 14:34:52 4
2018/10/15 14:34:52 4
2018/10/15 14:34:52 4
2018/10/15 14:34:52 4
2018/10/15 14:34:52 4
2018/10/15 14:34:52 4
2018/10/15 14:34:52 4
2018/10/15 14:34:52 4
2018/10/15 14:34:52 4
2018/10/15 14:34:52 3
2018/10/15 14:34:52 4
2018/10/15 14:34:52 3
2018/10/15 14:34:52 4
2018/10/15 14:34:52 4
2018/10/15 14:34:52 4
2018/10/15 14:34:52 4
2018/10/15 14:34:52 4
2018/10/15 14:34:52 4
2018/10/15 14:34:52 4
2018/10/15 14:34:52 4
2018/10/15 14:34:52 4
2018/10/15 14:34:52 4
2018/10/15 14:34:52 4
2018/10/15 14:34:52 4
2018/10/15 14:34:52 4
2018/10/15 14:34:52 4
2018/10/15 14:34:52 4
2018/10/15 14:34:52 4
2018/10/15 14:34:52 3
2018/10/15 14:34:52 3
2018/10/15 14:34:52 4
2018/10/15 14:34:53 3
2018/10/15 14:34:53 3
2018/10/15 14:34:53 4
2018/10/15 14:34:53 4
2018/10/15 14:34:53 4
2018/10/15 14:34:53 4
2018/10/15 14:34:53 4
2018/10/15 14:34:53 4
2018/10/15 14:34:53 4
2018/10/15 14:34:53 4
2018/10/15 14:34:53 4
2018/10/15 14:34:53 4
2018/10/15 14:34:53 4
2018/10/15 14:34:53 4
2018/10/15 14:34:53 4
2018/10/15 14:34:53 4
2018/10/15 14:34:53 4
2018/10/15 14:34:53 4
2018/10/15 14:34:53 4
2018/10/15 14:34:53 4
2018/10/15 14:34:53 4
2018/10/15 14:34:53 3
2018/10/15 14:34:53 4
2018/10/15 14:34:53 4
2018/10/15 14:34:53 4
2018/10/15 14:34:53 4
2018/10/15 14:34:53 4
2018/10/15 14:34:53 3
2018/10/15 14:34:53 4
2018/10/15 14:34:53 5
2018/10/15 14:34:53 4
2018/10/15 14:34:53 5
2018/10/15 14:34:53 4
2018/10/15 14:34:53 4
2018/10/15 14:34:53 4
2018/10/15 14:34:53 4
2018/10/15 14:34:53 3
2018/10/15 14:34:53 3
2018/10/15 14:34:53 4
2018/10/15 14:34:53 3
2018/10/15 14:34:53 4
2018/10/15 14:34:53 3
2018/10/15 14:34:53 4
2018/10/15 14:34:53 4
2018/10/15 14:34:53 4
2018/10/15 14:34:53 4
2018/10/15 14:34:53 4
2018/10/15 14:34:53 4
2018/10/15 14:34:53 4
2018/10/15 14:34:53 5
2018/10/15 14:34:53 4
2018/10/15 14:34:53 4
2018/10/15 14:34:53 4
2018/10/15 14:34:53 3
2018/10/15 14:34:53 4
2018/10/15 14:34:53 4
2018/10/15 14:34:53 4
2018/10/15 14:34:53 4
2018/10/15 14:34:53 5
2018/10/15 14:34:53 4
2018/10/15 14:34:53 4
2018/10/15 14:34:53 5
2018/10/15 14:34:53 4
2018/10/15 14:34:53 4
2018/10/15 14:34:53 4
2018/10/15 14:34:53 4
2018/10/15 14:34:53 3
2018/10/15 14:34:53 4
2018/10/15 14:34:53 3
2018/10/15 14:34:53 3
2018/10/15 14:34:53 3
2018/10/15 14:34:53 3
2018/10/15 14:34:53 4
2018/10/15 14:34:53 4
2018/10/15 14:34:53 5
2018/10/15 14:34:53 4
2018/10/15 14:34:53 6
2018/10/15 14:34:53 4
2018/10/15 14:34:53 5
2018/10/15 14:34:53 4
2018/10/15 14:34:53 3
2018/10/15 14:34:53 4
2018/10/15 14:34:53 4
2018/10/15 14:34:53 4
2018/10/15 14:34:53 4
2018/10/15 14:34:53 4
2018/10/15 14:34:53 3
2018/10/15 14:34:53 4
2018/10/15 14:34:53 4
2018/10/15 14:34:53 3
2018/10/15 14:34:53 4
2018/10/15 14:34:53 4
2018/10/15 14:34:53 4
2018/10/15 14:34:53 4
2018/10/15 14:34:53 4
2018/10/15 14:34:53 4
2018/10/15 14:34:53 5
2018/10/15 14:34:53 4
2018/10/15 14:34:53 3
2018/10/15 14:34:53 4
2018/10/15 14:34:54 4
2018/10/15 14:34:54 4
2018/10/15 14:34:54 4
2018/10/15 14:34:54 4
2018/10/15 14:34:54 4
2018/10/15 14:34:54 3
2018/10/15 14:34:54 3
2018/10/15 14:34:54 4
2018/10/15 14:34:54 4
2018/10/15 14:34:54 4
2018/10/15 14:34:54 4
2018/10/15 14:34:54 3
2018/10/15 14:34:54 4
2018/10/15 14:34:54 3
2018/10/15 14:34:54 3
2018/10/15 14:34:54 4
2018/10/15 14:34:54 4
2018/10/15 14:34:54 4
2018/10/15 14:34:54 6
2018/10/15 14:34:54 4
2018/10/15 14:34:54 4
2018/10/15 14:34:54 4
2018/10/15 14:34:54 3
2018/10/15 14:34:54 4
2018/10/15 14:34:54 4
2018/10/15 14:34:54 5
2018/10/15 14:34:54 4
2018/10/15 14:34:54 4
2018/10/15 14:34:54 4
2018/10/15 14:34:54 3
2018/10/15 14:34:54 4
2018/10/15 14:34:54 4
2018/10/15 14:34:54 3
2018/10/15 14:34:54 4
2018/10/15 14:34:54 3
2018/10/15 14:34:54 4
2018/10/15 14:34:54 4
2018/10/15 14:34:54 4
2018/10/15 14:34:54 4
2018/10/15 14:34:54 4
2018/10/15 14:34:54 4
2018/10/15 14:34:54 3
2018/10/15 14:34:54 4
2018/10/15 14:34:54 4
2018/10/15 14:34:54 4
2018/10/15 14:34:54 4
2018/10/15 14:34:54 4
2018/10/15 14:34:54 4
2018/10/15 14:34:54 4
2018/10/15 14:34:54 4
2018/10/15 14:34:54 4
2018/10/15 14:34:54 4
2018/10/15 14:34:54 4
2018/10/15 14:34:54 4
2018/10/15 14:34:54 4
2018/10/15 14:34:54 3
2018/10/15 14:34:54 4
2018/10/15 14:34:54 4
2018/10/15 14:34:54 5
2018/10/15 14:34:54 4
2018/10/15 14:34:54 4
2018/10/15 14:34:54 4
2018/10/15 14:34:54 4
2018/10/15 14:34:54 4
2018/10/15 14:34:54 3
2018/10/15 14:34:54 4
2018/10/15 14:34:54 3
2018/10/15 14:34:54 3
2018/10/15 14:34:54 3
2018/10/15 14:34:54 3
2018/10/15 14:34:54 3
2018/10/15 14:34:54 3
2018/10/15 14:34:54 3
2018/10/15 14:34:54 4
2018/10/15 14:34:54 3
2018/10/15 14:34:54 3
2018/10/15 14:34:54 3
2018/10/15 14:34:54 4
2018/10/15 14:34:54 4
2018/10/15 14:34:54 4
2018/10/15 14:34:54 4
2018/10/15 14:34:54 4
2018/10/15 14:34:54 9
2018/10/15 14:34:54 4
2018/10/15 14:34:54 4
2018/10/15 14:34:54 4
2018/10/15 14:34:54 4
2018/10/15 14:34:54 4
2018/10/15 14:34:54 4
2018/10/15 14:34:54 3
2018/10/15 14:34:54 4
2018/10/15 14:34:54 4
2018/10/15 14:34:54 4
2018/10/15 14:34:54 3
2018/10/15 14:34:54 4
2018/10/15 14:34:54 3
2018/10/15 14:34:54 3
2018/10/15 14:34:54 4
2018/10/15 14:34:54 4
2018/10/15 14:34:54 3
2018/10/15 14:34:55 4
2018/10/15 14:34:55 4
2018/10/15 14:34:55 4
2018/10/15 14:34:55 3
2018/10/15 14:34:55 4
2018/10/15 14:34:55 3
2018/10/15 14:34:55 6
2018/10/15 14:34:55 5
2018/10/15 14:34:55 4
2018/10/15 14:34:55 8
2018/10/15 14:34:55 8
2018/10/15 14:34:55 7
2018/10/15 14:34:55 6
2018/10/15 14:34:55 6
2018/10/15 14:34:55 5
2018/10/15 14:34:55 4
2018/10/15 14:34:55 3
2018/10/15 14:34:55 4
2018/10/15 14:34:55 10
2018/10/15 14:34:55 4
2018/10/15 14:34:55 9
2018/10/15 14:34:55 4
2018/10/15 14:34:55 3
2018/10/15 14:34:55 9
2018/10/15 14:34:55 4
2018/10/15 14:34:55 5
2018/10/15 14:34:55 4
2018/10/15 14:34:55 3
2018/10/15 14:34:55 3
2018/10/15 14:34:55 3
2018/10/15 14:34:55 4
2018/10/15 14:34:55 4
2018/10/15 14:34:55 4
2018/10/15 14:34:55 4
2018/10/15 14:34:55 4
2018/10/15 14:34:55 4
2018/10/15 14:34:55 4
2018/10/15 14:34:55 4
2018/10/15 14:34:55 4
2018/10/15 14:34:55 4
2018/10/15 14:34:55 3
2018/10/15 14:34:55 3
2018/10/15 14:34:55 4
2018/10/15 14:34:55 3
2018/10/15 14:34:55 4
2018/10/15 14:34:55 4
2018/10/15 14:34:55 4
2018/10/15 14:34:55 4
2018/10/15 14:34:55 4
2018/10/15 14:34:55 4
2018/10/15 14:34:55 4
2018/10/15 14:34:55 4
2018/10/15 14:34:55 4
2018/10/15 14:34:55 4
2018/10/15 14:34:55 4
2018/10/15 14:34:55 3
2018/10/15 14:34:55 4
2018/10/15 14:34:55 4
2018/10/15 14:34:55 4
2018/10/15 14:34:55 4
2018/10/15 14:34:55 4
2018/10/15 14:34:55 4
2018/10/15 14:34:55 4
2018/10/15 14:34:55 4
2018/10/15 14:34:55 4
2018/10/15 14:34:55 4
2018/10/15 14:34:55 3
2018/10/15 14:34:55 4
2018/10/15 14:34:55 4
2018/10/15 14:34:55 4
2018/10/15 14:34:55 4
2018/10/15 14:34:55 3
2018/10/15 14:34:55 4
2018/10/15 14:34:55 3
2018/10/15 14:34:55 4
2018/10/15 14:34:55 4
2018/10/15 14:34:55 4
2018/10/15 14:34:55 3
2018/10/15 14:34:55 3
2018/10/15 14:34:55 4
2018/10/15 14:34:55 4
2018/10/15 14:34:55 4
2018/10/15 14:34:55 4
2018/10/15 14:34:55 4
2018/10/15 14:34:55 3
2018/10/15 14:34:55 4
2018/10/15 14:34:55 4
2018/10/15 14:34:55 3
2018/10/15 14:34:55 4
2018/10/15 14:34:55 4
2018/10/15 14:34:55 4
2018/10/15 14:34:55 3
2018/10/15 14:34:55 3
2018/10/15 14:34:55 4
2018/10/15 14:34:55 4
2018/10/15 14:34:55 7
2018/10/15 14:34:55 4
2018/10/15 14:34:55 4
2018/10/15 14:34:55 4
2018/10/15 14:34:56 4
2018/10/15 14:34:56 4
2018/10/15 14:34:56 4
2018/10/15 14:34:56 4
2018/10/15 14:34:56 4
2018/10/15 14:34:56 4
2018/10/15 14:34:56 4
2018/10/15 14:34:56 3
2018/10/15 14:34:56 4
2018/10/15 14:34:56 4
2018/10/15 14:34:56 4
2018/10/15 14:34:56 4
2018/10/15 14:34:56 3
2018/10/15 14:34:56 4
2018/10/15 14:34:56 4
2018/10/15 14:34:56 4
2018/10/15 14:34:56 4
2018/10/15 14:34:56 4
2018/10/15 14:34:56 7
2018/10/15 14:34:56 4
2018/10/15 14:34:56 4
2018/10/15 14:34:56 4
2018/10/15 14:34:56 4
2018/10/15 14:34:56 3
2018/10/15 14:34:56 4
2018/10/15 14:34:56 4
2018/10/15 14:34:56 4
2018/10/15 14:34:56 4
2018/10/15 14:34:56 4
2018/10/15 14:34:56 4
2018/10/15 14:34:56 4
2018/10/15 14:34:56 4
2018/10/15 14:34:56 4
2018/10/15 14:34:56 4
2018/10/15 14:34:56 4
2018/10/15 14:34:56 4
2018/10/15 14:34:56 4
2018/10/15 14:34:56 4
2018/10/15 14:34:56 4
2018/10/15 14:34:56 4
2018/10/15 14:34:56 4
2018/10/15 14:34:56 4
2018/10/15 14:34:56 5
2018/10/15 14:34:56 4
2018/10/15 14:34:56 3
2018/10/15 14:34:56 5
2018/10/15 14:34:56 4
2018/10/15 14:34:56 3
2018/10/15 14:34:56 4
2018/10/15 14:34:56 4
2018/10/15 14:34:56 4
2018/10/15 14:34:56 5
2018/10/15 14:34:56 4
2018/10/15 14:34:56 5
2018/10/15 14:34:56 4
2018/10/15 14:34:56 5
2018/10/15 14:34:56 6
2018/10/15 14:34:56 4
2018/10/15 14:34:56 4
2018/10/15 14:34:56 3
2018/10/15 14:34:56 4
2018/10/15 14:34:56 4
2018/10/15 14:34:56 4
2018/10/15 14:34:56 4
2018/10/15 14:34:56 3
2018/10/15 14:34:56 3
2018/10/15 14:34:56 4
2018/10/15 14:34:56 3
2018/10/15 14:34:56 3
2018/10/15 14:34:56 4
2018/10/15 14:34:56 4
2018/10/15 14:34:56 3
2018/10/15 14:34:56 4
2018/10/15 14:34:56 4
2018/10/15 14:34:56 4
2018/10/15 14:34:56 3
2018/10/15 14:34:56 4
2018/10/15 14:34:56 4
2018/10/15 14:34:56 6
2018/10/15 14:34:56 4
2018/10/15 14:34:56 4
2018/10/15 14:34:56 4
2018/10/15 14:34:56 4
2018/10/15 14:34:56 4
2018/10/15 14:34:56 5
2018/10/15 14:34:56 4
2018/10/15 14:34:56 4
2018/10/15 14:34:56 4
2018/10/15 14:34:56 4
2018/10/15 14:34:56 4
2018/10/15 14:34:56 4
2018/10/15 14:34:56 4
2018/10/15 14:34:56 3
2018/10/15 14:34:56 4
2018/10/15 14:34:56 3
2018/10/15 14:34:56 4
2018/10/15 14:34:56 3
2018/10/15 14:34:56 4
2018/10/15 14:34:56 4
2018/10/15 14:34:56 4
2018/10/15 14:34:56 3
2018/10/15 14:34:57 4
2018/10/15 14:34:57 4
2018/10/15 14:34:57 4
2018/10/15 14:34:57 3
2018/10/15 14:34:57 4
2018/10/15 14:34:57 4
2018/10/15 14:34:57 4
2018/10/15 14:34:57 4
2018/10/15 14:34:57 4
2018/10/15 14:34:57 3
2018/10/15 14:34:57 3
2018/10/15 14:34:57 4
2018/10/15 14:34:57 4
2018/10/15 14:34:57 5
2018/10/15 14:34:57 4
2018/10/15 14:34:57 3
2018/10/15 14:34:57 4
2018/10/15 14:34:57 4
2018/10/15 14:34:57 3
2018/10/15 14:34:57 4
2018/10/15 14:34:57 4
2018/10/15 14:34:57 4
2018/10/15 14:34:57 4
2018/10/15 14:34:57 3
2018/10/15 14:34:57 3
2018/10/15 14:34:57 4
2018/10/15 14:34:57 3
2018/10/15 14:34:57 4
2018/10/15 14:34:57 4
2018/10/15 14:34:57 4
2018/10/15 14:34:57 4
2018/10/15 14:34:57 4
2018/10/15 14:34:57 4
2018/10/15 14:34:57 3
2018/10/15 14:34:57 4
2018/10/15 14:34:57 4
2018/10/15 14:34:57 4
2018/10/15 14:34:57 4
2018/10/15 14:34:57 3
2018/10/15 14:34:57 4
2018/10/15 14:34:57 4
2018/10/15 14:34:57 4
2018/10/15 14:34:57 4
2018/10/15 14:34:57 4
2018/10/15 14:34:57 4
2018/10/15 14:34:57 4
2018/10/15 14:34:57 4
2018/10/15 14:34:57 4
2018/10/15 14:34:57 4
2018/10/15 14:34:57 4
2018/10/15 14:34:57 4
2018/10/15 14:34:57 4
2018/10/15 14:34:57 4
2018/10/15 14:34:57 3
2018/10/15 14:34:57 3
2018/10/15 14:34:57 3
2018/10/15 14:34:57 4
2018/10/15 14:34:57 3
2018/10/15 14:34:57 3
2018/10/15 14:34:57 3
2018/10/15 14:34:57 3
2018/10/15 14:34:57 3
2018/10/15 14:34:57 4
2018/10/15 14:34:57 4
2018/10/15 14:34:57 4
2018/10/15 14:34:57 4
2018/10/15 14:34:57 3
2018/10/15 14:34:57 4
2018/10/15 14:34:57 3
2018/10/15 14:34:57 4
2018/10/15 14:34:57 4
2018/10/15 14:34:57 4
2018/10/15 14:34:57 4
2018/10/15 14:34:57 4
2018/10/15 14:34:57 4
2018/10/15 14:34:57 4
2018/10/15 14:34:57 4
2018/10/15 14:34:57 4
2018/10/15 14:34:57 4
2018/10/15 14:34:57 4
2018/10/15 14:34:57 4
2018/10/15 14:34:57 4
2018/10/15 14:34:57 4
2018/10/15 14:34:57 4
2018/10/15 14:34:57 4
2018/10/15 14:34:57 3
2018/10/15 14:34:57 4
2018/10/15 14:34:57 3
2018/10/15 14:34:57 4
2018/10/15 14:34:57 4
2018/10/15 14:34:57 4
2018/10/15 14:34:57 3
2018/10/15 14:34:57 4
2018/10/15 14:34:57 4
2018/10/15 14:34:57 4
2018/10/15 14:34:57 4
2018/10/15 14:34:57 4
2018/10/15 14:34:57 3
2018/10/15 14:34:57 4
2018/10/15 14:34:58 4
2018/10/15 14:34:58 4
2018/10/15 14:34:58 4
2018/10/15 14:34:58 3
2018/10/15 14:34:58 4
2018/10/15 14:34:58 4
2018/10/15 14:34:58 4
2018/10/15 14:34:58 3
2018/10/15 14:34:58 4
2018/10/15 14:34:58 4
2018/10/15 14:34:58 4
2018/10/15 14:34:58 4
2018/10/15 14:34:58 5
2018/10/15 14:34:58 4
2018/10/15 14:34:58 4
2018/10/15 14:34:58 4
2018/10/15 14:34:58 4
2018/10/15 14:34:58 4
2018/10/15 14:34:58 5
2018/10/15 14:34:58 4
2018/10/15 14:34:58 4
2018/10/15 14:34:58 4
2018/10/15 14:34:58 4
2018/10/15 14:34:58 3
2018/10/15 14:34:58 3
2018/10/15 14:34:58 4
2018/10/15 14:34:58 4
2018/10/15 14:34:58 4
2018/10/15 14:34:58 4
2018/10/15 14:34:58 3
2018/10/15 14:34:58 3
2018/10/15 14:34:58 4
2018/10/15 14:34:58 4
2018/10/15 14:34:58 4
2018/10/15 14:34:58 4
2018/10/15 14:34:58 4
2018/10/15 14:34:58 4
2018/10/15 14:34:58 4
2018/10/15 14:34:58 3
2018/10/15 14:34:58 4
2018/10/15 14:34:58 3
2018/10/15 14:34:58 4
2018/10/15 14:34:58 3
2018/10/15 14:34:58 3
2018/10/15 14:34:58 3
2018/10/15 14:34:58 3
2018/10/15 14:34:58 3
2018/10/15 14:34:58 4
2018/10/15 14:34:58 4
2018/10/15 14:34:58 4
2018/10/15 14:34:58 4
2018/10/15 14:34:58 4
2018/10/15 14:34:58 4
2018/10/15 14:34:58 4
2018/10/15 14:34:58 4
2018/10/15 14:34:58 4
2018/10/15 14:34:58 3
2018/10/15 14:34:58 3
2018/10/15 14:34:58 3
2018/10/15 14:34:58 3
2018/10/15 14:34:58 4
2018/10/15 14:34:58 4
2018/10/15 14:34:58 4
2018/10/15 14:34:58 4
2018/10/15 14:34:58 4
2018/10/15 14:34:58 4
2018/10/15 14:34:58 4
2018/10/15 14:34:58 4
2018/10/15 14:34:58 3
2018/10/15 14:34:58 3
2018/10/15 14:34:58 4
2018/10/15 14:34:58 4
2018/10/15 14:34:58 4
2018/10/15 14:34:58 4
2018/10/15 14:34:58 4
2018/10/15 14:34:58 3
2018/10/15 14:34:58 3
2018/10/15 14:34:58 3
2018/10/15 14:34:58 3
2018/10/15 14:34:58 4
2018/10/15 14:34:58 4
2018/10/15 14:34:58 4
2018/10/15 14:34:58 4
2018/10/15 14:34:58 4
2018/10/15 14:34:58 5
2018/10/15 14:34:58 4
2018/10/15 14:34:58 4
2018/10/15 14:34:58 4
2018/10/15 14:34:58 3
2018/10/15 14:34:58 3
2018/10/15 14:34:58 3
2018/10/15 14:34:58 3
2018/10/15 14:34:58 3
2018/10/15 14:34:58 3
2018/10/15 14:34:58 4
2018/10/15 14:34:58 3
2018/10/15 14:34:58 3
2018/10/15 14:34:58 3
2018/10/15 14:34:58 4
2018/10/15 14:34:58 4
2018/10/15 14:34:58 3
2018/10/15 14:34:59 3
2018/10/15 14:34:59 4
2018/10/15 14:34:59 4
2018/10/15 14:34:59 4
2018/10/15 14:34:59 4
2018/10/15 14:34:59 4
2018/10/15 14:34:59 4
2018/10/15 14:34:59 4
2018/10/15 14:34:59 4
2018/10/15 14:34:59 4
2018/10/15 14:34:59 3
2018/10/15 14:34:59 4
2018/10/15 14:34:59 4
2018/10/15 14:34:59 4
2018/10/15 14:34:59 3
2018/10/15 14:34:59 3
2018/10/15 14:34:59 3
2018/10/15 14:34:59 4
2018/10/15 14:34:59 4
2018/10/15 14:34:59 3
2018/10/15 14:34:59 4
2018/10/15 14:34:59 4
2018/10/15 14:34:59 3
2018/10/15 14:34:59 4
2018/10/15 14:34:59 4
2018/10/15 14:34:59 4
2018/10/15 14:34:59 3
2018/10/15 14:34:59 3
2018/10/15 14:34:59 4
2018/10/15 14:34:59 4
2018/10/15 14:34:59 4
2018/10/15 14:34:59 4
2018/10/15 14:34:59 4
2018/10/15 14:34:59 4
2018/10/15 14:34:59 4
2018/10/15 14:34:59 4
2018/10/15 14:34:59 3
2018/10/15 14:34:59 4
2018/10/15 14:34:59 3
2018/10/15 14:34:59 4
2018/10/15 14:34:59 4
2018/10/15 14:34:59 3
2018/10/15 14:34:59 3
2018/10/15 14:34:59 3
2018/10/15 14:34:59 3
2018/10/15 14:34:59 3
2018/10/15 14:34:59 4
2018/10/15 14:34:59 4
2018/10/15 14:34:59 5
2018/10/15 14:34:59 4
2018/10/15 14:34:59 3
2018/10/15 14:34:59 4
2018/10/15 14:34:59 4
2018/10/15 14:34:59 4
2018/10/15 14:34:59 3
2018/10/15 14:34:59 3
2018/10/15 14:34:59 4
2018/10/15 14:34:59 4
2018/10/15 14:34:59 3
2018/10/15 14:34:59 3
2018/10/15 14:34:59 3
2018/10/15 14:34:59 4
2018/10/15 14:34:59 3
2018/10/15 14:34:59 4
2018/10/15 14:34:59 4
2018/10/15 14:34:59 4
2018/10/15 14:34:59 3
2018/10/15 14:34:59 4
2018/10/15 14:34:59 3
2018/10/15 14:34:59 3
2018/10/15 14:34:59 4
2018/10/15 14:34:59 4
2018/10/15 14:34:59 5
2018/10/15 14:34:59 4
2018/10/15 14:34:59 4
2018/10/15 14:34:59 4
2018/10/15 14:34:59 4
2018/10/15 14:34:59 4
2018/10/15 14:34:59 4
2018/10/15 14:34:59 4
2018/10/15 14:34:59 3
2018/10/15 14:34:59 4
2018/10/15 14:34:59 5
2018/10/15 14:34:59 4
2018/10/15 14:34:59 5
2018/10/15 14:34:59 4
2018/10/15 14:34:59 4
2018/10/15 14:34:59 4
2018/10/15 14:34:59 4
2018/10/15 14:34:59 4
2018/10/15 14:34:59 3
2018/10/15 14:34:59 4
2018/10/15 14:34:59 4
2018/10/15 14:34:59 4
2018/10/15 14:34:59 3
2018/10/15 14:34:59 3
2018/10/15 14:34:59 4
2018/10/15 14:34:59 3
2018/10/15 14:34:59 3
2018/10/15 14:34:59 4
2018/10/15 14:35:00 4
2018/10/15 14:35:00 4
2018/10/15 14:35:00 3
2018/10/15 14:35:00 4
2018/10/15 14:35:00 4
2018/10/15 14:35:00 4
2018/10/15 14:35:00 4
2018/10/15 14:35:00 4
2018/10/15 14:35:00 4
2018/10/15 14:35:00 4
2018/10/15 14:35:00 4
2018/10/15 14:35:00 4
2018/10/15 14:35:00 4
2018/10/15 14:35:00 3
2018/10/15 14:35:00 3
2018/10/15 14:35:00 3
2018/10/15 14:35:00 3
2018/10/15 14:35:00 3
2018/10/15 14:35:00 3
2018/10/15 14:35:00 4
2018/10/15 14:35:00 4
2018/10/15 14:35:00 4
2018/10/15 14:35:00 4
2018/10/15 14:35:00 3
2018/10/15 14:35:00 3
2018/10/15 14:35:00 3
2018/10/15 14:35:00 4
2018/10/15 14:35:00 4
2018/10/15 14:35:00 4
2018/10/15 14:35:00 3
2018/10/15 14:35:00 3
2018/10/15 14:35:00 4
2018/10/15 14:35:00 4
2018/10/15 14:35:00 4
2018/10/15 14:35:00 4
2018/10/15 14:35:00 4
2018/10/15 14:35:00 4
2018/10/15 14:35:00 4
2018/10/15 14:35:00 4
2018/10/15 14:35:00 4
2018/10/15 14:35:00 4
2018/10/15 14:35:00 4
2018/10/15 14:35:00 4
2018/10/15 14:35:00 3
2018/10/15 14:35:00 4
2018/10/15 14:35:00 4
2018/10/15 14:35:00 3
2018/10/15 14:35:00 3
2018/10/15 14:35:00 4
2018/10/15 14:35:00 3
2018/10/15 14:35:00 3
2018/10/15 14:35:00 3
2018/10/15 14:35:00 3
2018/10/15 14:35:00 3
2018/10/15 14:35:00 4
2018/10/15 14:35:00 4
2018/10/15 14:35:00 4
2018/10/15 14:35:00 4
2018/10/15 14:35:00 4
2018/10/15 14:35:00 3
2018/10/15 14:35:00 4
2018/10/15 14:35:00 4
2018/10/15 14:35:00 4
2018/10/15 14:35:00 4
2018/10/15 14:35:00 4
2018/10/15 14:35:00 4
2018/10/15 14:35:00 4
2018/10/15 14:35:00 5
2018/10/15 14:35:00 4
2018/10/15 14:35:00 4
2018/10/15 14:35:00 4
2018/10/15 14:35:00 4
2018/10/15 14:35:00 4
2018/10/15 14:35:00 4
2018/10/15 14:35:00 4
2018/10/15 14:35:00 4
2018/10/15 14:35:00 4
2018/10/15 14:35:00 4
2018/10/15 14:35:00 4
2018/10/15 14:35:00 4
2018/10/15 14:35:00 3
2018/10/15 14:35:00 4
2018/10/15 14:35:00 4
2018/10/15 14:35:00 3
2018/10/15 14:35:00 4
2018/10/15 14:35:00 3
2018/10/15 14:35:00 3
2018/10/15 14:35:00 3
2018/10/15 14:35:00 4
2018/10/15 14:35:00 3
2018/10/15 14:35:00 4
2018/10/15 14:35:00 3
2018/10/15 14:35:00 4
2018/10/15 14:35:00 4
2018/10/15 14:35:00 4
2018/10/15 14:35:00 4
2018/10/15 14:35:00 4
2018/10/15 14:35:00 5
2018/10/15 14:35:00 4
2018/10/15 14:35:00 4
2018/10/15 14:35:01 4
2018/10/15 14:35:01 4
2018/10/15 14:35:01 3
2018/10/15 14:35:01 4
2018/10/15 14:35:01 4
2018/10/15 14:35:01 4
2018/10/15 14:35:01 3
2018/10/15 14:35:01 4
2018/10/15 14:35:01 4
2018/10/15 14:35:01 4
2018/10/15 14:35:01 4
2018/10/15 14:35:01 4
2018/10/15 14:35:01 4
2018/10/15 14:35:01 4
2018/10/15 14:35:01 3
2018/10/15 14:35:01 4
2018/10/15 14:35:01 4
2018/10/15 14:35:01 4
2018/10/15 14:35:01 4
2018/10/15 14:35:01 4
2018/10/15 14:35:01 3
2018/10/15 14:35:01 3
2018/10/15 14:35:01 4
2018/10/15 14:35:01 3
2018/10/15 14:35:01 4
2018/10/15 14:35:01 3
2018/10/15 14:35:01 3
2018/10/15 14:35:01 4
2018/10/15 14:35:01 4
2018/10/15 14:35:01 4
2018/10/15 14:35:01 4
2018/10/15 14:35:01 4
2018/10/15 14:35:01 4
2018/10/15 14:35:01 4
2018/10/15 14:35:01 4
2018/10/15 14:35:01 4
2018/10/15 14:35:01 4
2018/10/15 14:35:01 4
2018/10/15 14:35:01 4
2018/10/15 14:35:01 4
2018/10/15 14:35:01 4
2018/10/15 14:35:01 4
2018/10/15 14:35:01 4
2018/10/15 14:35:01 4
2018/10/15 14:35:01 4
2018/10/15 14:35:01 4
2018/10/15 14:35:01 4
2018/10/15 14:35:01 4
2018/10/15 14:35:01 3
2018/10/15 14:35:01 4
2018/10/15 14:35:01 4
2018/10/15 14:35:01 4
2018/10/15 14:35:01 4
2018/10/15 14:35:01 4
2018/10/15 14:35:01 3
2018/10/15 14:35:01 4
2018/10/15 14:35:01 3
2018/10/15 14:35:01 4
2018/10/15 14:35:01 3
2018/10/15 14:35:01 4
2018/10/15 14:35:01 4
2018/10/15 14:35:01 4
2018/10/15 14:35:01 4
2018/10/15 14:35:01 3
2018/10/15 14:35:01 4
2018/10/15 14:35:01 4
2018/10/15 14:35:01 3
2018/10/15 14:35:01 4
2018/10/15 14:35:01 4
2018/10/15 14:35:01 3
2018/10/15 14:35:01 4
2018/10/15 14:35:01 4
2018/10/15 14:35:01 4
2018/10/15 14:35:01 4
2018/10/15 14:35:01 4
2018/10/15 14:35:01 3
2018/10/15 14:35:01 4
2018/10/15 14:35:01 3
2018/10/15 14:35:01 4
2018/10/15 14:35:01 4
2018/10/15 14:35:01 4
2018/10/15 14:35:01 4
2018/10/15 14:35:01 4
2018/10/15 14:35:01 4
2018/10/15 14:35:01 4
2018/10/15 14:35:01 4
2018/10/15 14:35:01 4
2018/10/15 14:35:01 4
2018/10/15 14:35:01 4
2018/10/15 14:35:01 4
2018/10/15 14:35:01 4
2018/10/15 14:35:01 4
2018/10/15 14:35:01 4
2018/10/15 14:35:01 4
2018/10/15 14:35:01 3
2018/10/15 14:35:01 4
2018/10/15 14:35:01 4
2018/10/15 14:35:01 4
2018/10/15 14:35:01 4
2018/10/15 14:35:02 4
2018/10/15 14:35:02 4
2018/10/15 14:35:02 4
2018/10/15 14:35:02 4
2018/10/15 14:35:02 4
2018/10/15 14:35:02 4
2018/10/15 14:35:02 4
2018/10/15 14:35:02 4
2018/10/15 14:35:02 3
2018/10/15 14:35:02 4
2018/10/15 14:35:02 4
2018/10/15 14:35:02 3
2018/10/15 14:35:02 3
2018/10/15 14:35:02 3
2018/10/15 14:35:02 4
2018/10/15 14:35:02 3
2018/10/15 14:35:02 4
2018/10/15 14:35:02 4
2018/10/15 14:35:02 4
2018/10/15 14:35:02 3
2018/10/15 14:35:02 3
2018/10/15 14:35:02 3
2018/10/15 14:35:02 4
2018/10/15 14:35:02 4
2018/10/15 14:35:02 3
2018/10/15 14:35:02 3
2018/10/15 14:35:02 3
2018/10/15 14:35:02 4
2018/10/15 14:35:02 3
2018/10/15 14:35:02 3
2018/10/15 14:35:02 4
2018/10/15 14:35:02 3
2018/10/15 14:35:02 3
2018/10/15 14:35:02 4
2018/10/15 14:35:02 4
2018/10/15 14:35:02 4
2018/10/15 14:35:02 4
2018/10/15 14:35:02 3
2018/10/15 14:35:02 3
2018/10/15 14:35:02 4
2018/10/15 14:35:02 4
2018/10/15 14:35:02 4
2018/10/15 14:35:02 3
2018/10/15 14:35:02 4
2018/10/15 14:35:02 3
2018/10/15 14:35:02 4
2018/10/15 14:35:02 4
2018/10/15 14:35:02 4
2018/10/15 14:35:02 4
2018/10/15 14:35:02 4
2018/10/15 14:35:02 3
2018/10/15 14:35:02 3
2018/10/15 14:35:02 3
2018/10/15 14:35:02 3
2018/10/15 14:35:02 3
2018/10/15 14:35:02 3
2018/10/15 14:35:02 3
2018/10/15 14:35:02 3
2018/10/15 14:35:02 4
2018/10/15 14:35:02 4
2018/10/15 14:35:02 4
2018/10/15 14:35:02 4
2018/10/15 14:35:02 3
2018/10/15 14:35:02 4
2018/10/15 14:35:02 4
2018/10/15 14:35:02 4
2018/10/15 14:35:02 5
2018/10/15 14:35:02 5
2018/10/15 14:35:02 5
2018/10/15 14:35:02 5
2018/10/15 14:35:02 4
2018/10/15 14:35:02 4
2018/10/15 14:35:02 4
2018/10/15 14:35:02 4
2018/10/15 14:35:02 4
2018/10/15 14:35:02 3
2018/10/15 14:35:02 3
2018/10/15 14:35:02 5
2018/10/15 14:35:02 4
2018/10/15 14:35:02 4
2018/10/15 14:35:02 4
2018/10/15 14:35:02 3
2018/10/15 14:35:02 4
2018/10/15 14:35:02 4
2018/10/15 14:35:02 4
2018/10/15 14:35:02 4
2018/10/15 14:35:02 3
2018/10/15 14:35:02 3
2018/10/15 14:35:02 3
2018/10/15 14:35:02 5
2018/10/15 14:35:02 4
2018/10/15 14:35:02 4
2018/10/15 14:35:02 4
2018/10/15 14:35:02 4
2018/10/15 14:35:02 4
2018/10/15 14:35:02 4
2018/10/15 14:35:02 4
2018/10/15 14:35:02 3
2018/10/15 14:35:02 4
2018/10/15 14:35:03 5
2018/10/15 14:35:03 4
2018/10/15 14:35:03 11
2018/10/15 14:35:03 4
2018/10/15 14:35:03 4
2018/10/15 14:35:03 4
2018/10/15 14:35:03 4
2018/10/15 14:35:03 4
2018/10/15 14:35:03 3
2018/10/15 14:35:03 4
2018/10/15 14:35:03 4
2018/10/15 14:35:03 4
2018/10/15 14:35:03 4
2018/10/15 14:35:03 4
2018/10/15 14:35:03 4
2018/10/15 14:35:03 4
2018/10/15 14:35:03 4
2018/10/15 14:35:03 3
2018/10/15 14:35:03 4
2018/10/15 14:35:03 4
2018/10/15 14:35:03 5
2018/10/15 14:35:03 4
2018/10/15 14:35:03 4
2018/10/15 14:35:03 3
2018/10/15 14:35:03 4
2018/10/15 14:35:03 4
2018/10/15 14:35:03 3
2018/10/15 14:35:03 4
2018/10/15 14:35:03 3
2018/10/15 14:35:03 4
2018/10/15 14:35:03 5
2018/10/15 14:35:03 4
2018/10/15 14:35:03 4
2018/10/15 14:35:03 4
2018/10/15 14:35:03 4
2018/10/15 14:35:03 4
2018/10/15 14:35:03 4
2018/10/15 14:35:03 3
2018/10/15 14:35:03 3
2018/10/15 14:35:03 4
2018/10/15 14:35:03 4
2018/10/15 14:35:03 3
2018/10/15 14:35:03 4
2018/10/15 14:35:03 3
2018/10/15 14:35:03 3
2018/10/15 14:35:03 4
2018/10/15 14:35:03 4
2018/10/15 14:35:03 4
2018/10/15 14:35:03 3
2018/10/15 14:35:03 4
2018/10/15 14:35:03 4
2018/10/15 14:35:03 4
2018/10/15 14:35:03 3
2018/10/15 14:35:03 4
2018/10/15 14:35:03 4
2018/10/15 14:35:03 4
2018/10/15 14:35:03 4
2018/10/15 14:35:03 5
2018/10/15 14:35:03 4
2018/10/15 14:35:03 4
2018/10/15 14:35:03 4
2018/10/15 14:35:03 4
2018/10/15 14:35:03 4
2018/10/15 14:35:03 4
2018/10/15 14:35:03 3
2018/10/15 14:35:03 4
2018/10/15 14:35:03 4
2018/10/15 14:35:03 4
2018/10/15 14:35:03 4
2018/10/15 14:35:03 3
2018/10/15 14:35:03 4
2018/10/15 14:35:03 3
2018/10/15 14:35:03 3
2018/10/15 14:35:03 3
2018/10/15 14:35:03 4
2018/10/15 14:35:03 4
2018/10/15 14:35:03 3
2018/10/15 14:35:03 3
2018/10/15 14:35:03 3
2018/10/15 14:35:03 4
2018/10/15 14:35:03 4
2018/10/15 14:35:03 4
2018/10/15 14:35:03 3
2018/10/15 14:35:03 4
2018/10/15 14:35:03 4
2018/10/15 14:35:03 4
2018/10/15 14:35:03 4
2018/10/15 14:35:03 3
2018/10/15 14:35:03 4
2018/10/15 14:35:03 4
2018/10/15 14:35:03 4
2018/10/15 14:35:03 4
2018/10/15 14:35:03 4
2018/10/15 14:35:03 4
2018/10/15 14:35:03 4
2018/10/15 14:35:03 4
2018/10/15 14:35:03 4
2018/10/15 14:35:03 5
2018/10/15 14:35:03 3
2018/10/15 14:35:03 4
2018/10/15 14:35:03 3
2018/10/15 14:35:04 4
2018/10/15 14:35:04 4
2018/10/15 14:35:04 4
2018/10/15 14:35:04 4
2018/10/15 14:35:04 4
2018/10/15 14:35:04 4
2018/10/15 14:35:04 4
2018/10/15 14:35:04 4
2018/10/15 14:35:04 3
2018/10/15 14:35:04 4
2018/10/15 14:35:04 4
2018/10/15 14:35:04 3
2018/10/15 14:35:04 3
2018/10/15 14:35:04 3
2018/10/15 14:35:04 4
2018/10/15 14:35:04 4
2018/10/15 14:35:04 4
2018/10/15 14:35:04 3
2018/10/15 14:35:04 4
2018/10/15 14:35:04 5
2018/10/15 14:35:04 4
2018/10/15 14:35:04 3
2018/10/15 14:35:04 4
2018/10/15 14:35:04 4
2018/10/15 14:35:04 4
2018/10/15 14:35:04 4
2018/10/15 14:35:04 4
2018/10/15 14:35:04 4
2018/10/15 14:35:04 3
2018/10/15 14:35:04 4
2018/10/15 14:35:04 4
2018/10/15 14:35:04 3
2018/10/15 14:35:04 3
2018/10/15 14:35:04 4
2018/10/15 14:35:04 3
2018/10/15 14:35:04 3
2018/10/15 14:35:04 4
2018/10/15 14:35:04 4
2018/10/15 14:35:04 4
2018/10/15 14:35:04 3
2018/10/15 14:35:04 4
2018/10/15 14:35:04 4
2018/10/15 14:35:04 4
2018/10/15 14:35:04 3
2018/10/15 14:35:04 4
2018/10/15 14:35:04 4
2018/10/15 14:35:04 4
2018/10/15 14:35:04 4
2018/10/15 14:35:04 3
2018/10/15 14:35:04 4
2018/10/15 14:35:04 4
2018/10/15 14:35:04 3
2018/10/15 14:35:04 3
2018/10/15 14:35:04 4
2018/10/15 14:35:04 4
2018/10/15 14:35:04 4
2018/10/15 14:35:04 4
2018/10/15 14:35:04 4
2018/10/15 14:35:04 4
2018/10/15 14:35:04 4
2018/10/15 14:35:04 4
2018/10/15 14:35:04 4
2018/10/15 14:35:04 3
2018/10/15 14:35:04 3
2018/10/15 14:35:04 4
2018/10/15 14:35:04 4
2018/10/15 14:35:04 3
2018/10/15 14:35:04 3
2018/10/15 14:35:04 3
2018/10/15 14:35:04 4
2018/10/15 14:35:04 4
2018/10/15 14:35:04 3
2018/10/15 14:35:04 4
2018/10/15 14:35:04 4
2018/10/15 14:35:04 4
2018/10/15 14:35:04 4
2018/10/15 14:35:04 4
2018/10/15 14:35:04 4
2018/10/15 14:35:04 4
2018/10/15 14:35:04 4
2018/10/15 14:35:04 4
2018/10/15 14:35:04 4
2018/10/15 14:35:04 4
2018/10/15 14:35:04 3
2018/10/15 14:35:04 4
2018/10/15 14:35:04 4
2018/10/15 14:35:04 3
2018/10/15 14:35:04 4
2018/10/15 14:35:04 3
2018/10/15 14:35:04 3
2018/10/15 14:35:04 4
2018/10/15 14:35:04 4
2018/10/15 14:35:04 4
2018/10/15 14:35:04 4
2018/10/15 14:35:04 3
2018/10/15 14:35:04 4
2018/10/15 14:35:04 4
2018/10/15 14:35:04 4
2018/10/15 14:35:04 4
2018/10/15 14:35:04 4
2018/10/15 14:35:04 3
2018/10/15 14:35:05 4
2018/10/15 14:35:05 4
2018/10/15 14:35:05 4
2018/10/15 14:35:05 4
2018/10/15 14:35:05 4
2018/10/15 14:35:05 5
2018/10/15 14:35:05 4
2018/10/15 14:35:05 4
2018/10/15 14:35:05 4
2018/10/15 14:35:05 4
2018/10/15 14:35:05 3
2018/10/15 14:35:05 3
2018/10/15 14:35:05 4
2018/10/15 14:35:05 3
2018/10/15 14:35:05 4
2018/10/15 14:35:05 4
2018/10/15 14:35:05 3
2018/10/15 14:35:05 4
2018/10/15 14:35:05 5
2018/10/15 14:35:05 4
2018/10/15 14:35:05 4
2018/10/15 14:35:05 4
2018/10/15 14:35:05 4
2018/10/15 14:35:05 4
2018/10/15 14:35:05 4
2018/10/15 14:35:05 4
2018/10/15 14:35:05 4
2018/10/15 14:35:05 4
2018/10/15 14:35:05 4
2018/10/15 14:35:05 4
2018/10/15 14:35:05 3
2018/10/15 14:35:05 4
2018/10/15 14:35:05 4
2018/10/15 14:35:05 4
2018/10/15 14:35:05 4
2018/10/15 14:35:05 4
2018/10/15 14:35:05 4
2018/10/15 14:35:05 4
2018/10/15 14:35:05 4
2018/10/15 14:35:05 4
2018/10/15 14:35:05 4
2018/10/15 14:35:05 4
2018/10/15 14:35:05 4
2018/10/15 14:35:05 3
2018/10/15 14:35:05 3
2018/10/15 14:35:05 4
2018/10/15 14:35:05 3
2018/10/15 14:35:05 3
2018/10/15 14:35:05 3
2018/10/15 14:35:05 3
2018/10/15 14:35:05 3
2018/10/15 14:35:05 3
